[gd_scene load_steps=5 format=2]

[ext_resource path="res://scripts/danger/Flame.gd" type="Script" id=1]
[ext_resource path="res://imgs/imgs_level1_3/sheet_temple.png" type="Texture" id=2]

[sub_resource type="RectangleShape2D" id=1]
extents = Vector2( 16, 7 )

[sub_resource type="CircleShape2D" id=2]
radius = 32.5576

[node name="Flame" type="Area2D"]
position = Vector2( -7, 1 )
collision_layer = 8
collision_mask = 8
script = ExtResource( 1 )
__meta__ = {
"_edit_group_": true
}

[node name="Sprite" type="Sprite" parent="."]
position = Vector2( 7, 0 )
texture = ExtResource( 2 )
vframes = 10
hframes = 10
frame = 65

[node name="CollisionShape2D" type="CollisionShape2D" parent="."]
position = Vector2( 0, -1 )
shape = SubResource( 1 )

[node name="Activation_zone" type="Area2D" parent="."]
editor/display_folded = true
visible = false
collision_layer = 0
collision_mask = 32

[node name="CollisionShape2D" type="CollisionShape2D" parent="Activation_zone"]
scale = Vector2( 30, 30 )
shape = SubResource( 2 )
[connection signal="body_entered" from="." to="." method="_on_Flame_body_entered"]
[connection signal="body_exited" from="Activation_zone" to="." method="_on_Activation_zone_body_exited"]
