[gd_scene load_steps=5 format=2]

[ext_resource path="res://scripts/danger/PWater.gd" type="Script" id=1]
[ext_resource path="res://imgs/imgs_level1_1/sheet_3.png" type="Texture" id=2]
[ext_resource path="res://anims/level1/PWater.tres" type="Animation" id=3]

[sub_resource type="RectangleShape2D" id=1]
extents = Vector2( 16, 6 )

[node name="PWater" type="Area2D"]
collision_layer = 8
collision_mask = 8
script = ExtResource( 1 )
__meta__ = {
"_edit_group_": true
}

[node name="Sprite" type="Sprite" parent="."]
texture = ExtResource( 2 )
vframes = 6
hframes = 5
frame = 26

[node name="CollisionShape2D" type="CollisionShape2D" parent="."]
position = Vector2( 0, 10 )
shape = SubResource( 1 )

[node name="Anim" type="AnimationPlayer" parent="."]
anims/PWater = ExtResource( 3 )
[connection signal="body_entered" from="." to="." method="_on_PWater_body_entered"]
