[gd_scene load_steps=4 format=2]

[ext_resource path="res://scripts/danger/Danger.gd" type="Script" id=1]
[ext_resource path="res://imgs/imgs_level1_1/sheet_1.png" type="Texture" id=2]












[sub_resource type="RectangleShape2D" id=1]
extents = Vector2( 14, 8 )

[node name="Spikes" type="Area2D"]
position = Vector2( 16, -16 )
collision_layer = 8
collision_mask = 8
script = ExtResource( 1 )

[node name="Sprite" type="Sprite" parent="."]
position = Vector2( 0, -20 )
scale = Vector2( 1, 2.25 )
texture = ExtResource( 2 )
vframes = 6
hframes = 6
frame = 25

[node name="CollisionShape2D" type="CollisionShape2D" parent="."]
position = Vector2( 0, 8 )
shape = SubResource( 1 )
[connection signal="body_entered" from="." to="." method="_on_Spikes_body_entered"]
