[gd_scene load_steps=19 format=2]

[ext_resource path="res://scripts/platformers_basics/Platformer_scene.gd" type="Script" id=1]
[ext_resource path="res://imgs/imgs_level1_1/fond.png" type="Texture" id=2]
[ext_resource path="res://imgs/imgs_platformer_levels/buttons.png" type="Texture" id=3]
[ext_resource path="res://scripts/danger/Danger_parent.gd" type="Script" id=4]
[ext_resource path="res://prefabs/danger/spike.tscn" type="PackedScene" id=5]
[ext_resource path="res://prefabs/player.tscn" type="PackedScene" id=6]
[ext_resource path="res://tileset/level 1_1/tileset_1_1.tres" type="TileSet" id=7]
[ext_resource path="res://tileset/level 1_1/tileset_1_2.tres" type="TileSet" id=8]
[ext_resource path="res://prefabs/danger/purple_water.tscn" type="PackedScene" id=9]
[ext_resource path="res://scripts/checkpoint/Checkpoint_parent.gd" type="Script" id=10]
[ext_resource path="res://prefabs/platformer_items/platformer_checkpoint.tscn" type="PackedScene" id=11]
[ext_resource path="res://prefabs/gems/gems_parent.tscn" type="PackedScene" id=12]
[ext_resource path="res://prefabs/gems/gem_1.tscn" type="PackedScene" id=13]
[ext_resource path="res://prefabs/platformer_items/sprint_bar.tscn" type="PackedScene" id=14]
[ext_resource path="res://scripts/platformers_basics/Score.gd" type="Script" id=15]
[ext_resource path="res://scripts/platformers_basics/Door.gd" type="Script" id=16]
[ext_resource path="res://music/level0_music_lecafe.ogg" type="AudioStream" id=17]

[sub_resource type="RectangleShape2D" id=1]
extents = Vector2( 16, 64 )

[node name="level_0" type="Node2D"]
script = ExtResource( 1 )

[node name="Fond" type="CanvasLayer" parent="."]
layer = -10

[node name="Fond_1_1" type="TextureRect" parent="Fond"]
anchor_left = 0.5
anchor_top = 0.5
anchor_right = 0.5
anchor_bottom = 0.5
margin_left = -513.0
margin_top = -300.0
margin_right = 511.0
margin_bottom = 300.0
texture = ExtResource( 2 )
expand = true

[node name="Tutorial" type="Node2D" parent="."]

[node name="double_up" type="Sprite" parent="Tutorial"]
position = Vector2( 656, -28 )
texture = ExtResource( 3 )
region_enabled = true
region_rect = Rect2( 16, 0, 32, 16 )

[node name="up" type="Sprite" parent="Tutorial"]
position = Vector2( 208, -32 )
texture = ExtResource( 3 )
region_enabled = true
region_rect = Rect2( 16, 0, 16, 16 )

[node name="left" type="Sprite" parent="Tutorial"]
position = Vector2( -144, -32 )
texture = ExtResource( 3 )
region_enabled = true
region_rect = Rect2( 0, 0, 16, 16 )

[node name="a" type="Sprite" parent="Tutorial"]
position = Vector2( 2160, -96 )
texture = ExtResource( 3 )
region_enabled = true
region_rect = Rect2( 0, 16, 16, 16 )

[node name="Spikes_parent" type="Node2D" parent="."]
editor/display_folded = true
script = ExtResource( 4 )

[node name="Spikes" parent="Spikes_parent" instance=ExtResource( 5 )]
position = Vector2( 1071, 16 )

[node name="Spikes3" parent="Spikes_parent" instance=ExtResource( 5 )]
position = Vector2( 1263, 16 )

[node name="Spikes2" parent="Spikes_parent" instance=ExtResource( 5 )]
position = Vector2( 1103, 16 )

[node name="Spikes4" parent="Spikes_parent" instance=ExtResource( 5 )]
position = Vector2( 1295, 16 )

[node name="Spikes5" parent="Spikes_parent" instance=ExtResource( 5 )]
position = Vector2( 2703, 16 )

[node name="Spikes10" parent="Spikes_parent" instance=ExtResource( 5 )]
position = Vector2( 2479, 16 )

[node name="Spikes6" parent="Spikes_parent" instance=ExtResource( 5 )]
position = Vector2( 2735, 16 )

[node name="Spikes9" parent="Spikes_parent" instance=ExtResource( 5 )]
position = Vector2( 2511, 16 )

[node name="Spikes7" parent="Spikes_parent" instance=ExtResource( 5 )]
position = Vector2( 2767, 16 )

[node name="Spikes11" parent="Spikes_parent" instance=ExtResource( 5 )]
position = Vector2( 2543, 16 )

[node name="Spikes8" parent="Spikes_parent" instance=ExtResource( 5 )]
position = Vector2( 2799, 16 )

[node name="Spikes12" parent="Spikes_parent" instance=ExtResource( 5 )]
position = Vector2( 2575, 16 )

[node name="Player" parent="." instance=ExtResource( 6 )]
position = Vector2( -225, -17.95 )

[node name="Block_1" type="TileMap" parent="."]
tile_set = ExtResource( 7 )
cell_size = Vector2( 32, 32 )
format = 1
tile_data = PoolIntArray( -589833, 12, 0, -524297, 12, 0, -458761, 12, 0, -393225, 12, 0, -327689, 12, 0, -262153, 12, 0, -196617, 12, 0, -131081, 12, 0, -196544, -1610612725, 0, -65545, 12, 0, -131058, 12, 0, -131049, 12, 0, -131008, -1610612724, 0, -131007, -1610612724, 0, -131006, 12, 0, -131005, 13, 0, -9, 12, 0, -65528, 11, 0, -65523, 12, 0, -65522, 12, 0, -65513, 12, 0, -65494, 12, 0, -65472, -1610612724, 0, -65471, -1610612724, 0, -65470, -1610612723, 0, -65469, 12, 0, 65527, 12, 0, 65528, 15, 0, 65529, 15, 0, 65530, 15, 0, 65531, 15, 0, 65532, 15, 0, 65533, 15, 0, 65534, 15, 0, 65535, 15, 0, 0, 15, 0, 1, 15, 0, 2, 15, 0, 3, 15, 0, 4, 15, 0, 5, 15, 0, 6, 15, 0, 7, 15, 0, 8, 15, 0, 9, 15, 0, 10, 15, 0, 11, 15, 0, 12, 15, 0, 13, 15, 0, 14, 15, 0, 15, 15, 0, 16, 15, 0, 17, 15, 0, 18, 15, 0, 19, 15, 0, 20, 15, 0, 21, 15, 0, 22, 15, 0, 23, 15, 0, 24, 15, 0, 25, 15, 0, 26, 15, 0, 27, 15, 0, 28, 15, 0, 29, 15, 0, 30, 15, 0, 31, 15, 0, 32, 15, 0, 35, 15, 0, 36, 15, 0, 37, 15, 0, 38, 15, 0, 41, 15, 0, 42, 15, 0, 43, 15, 0, 44, 15, 0, 45, 15, 0, 46, 15, 0, 47, 15, 0, 51, 15, 0, 52, 15, 0, 61, 15, 0, 62, 15, 0, 63, 15, 0, 64, 15, 0, 65, 15, 0, 66, 15, 0, 67, 15, 0, 68, 15, 0, 69, 15, 0, 70, 15, 0, 71, 15, 0, 72, 15, 0, 73, 15, 0, 74, 15, 0, 75, 15, 0, 76, 15, 0, 81, 15, 0, 82, 15, 0, 83, 15, 0, 88, 15, 0, 89, 15, 0, 90, 15, 0, 91, 15, 0, 92, 15, 0, 131063, 12, 0, 131064, 15, 0, 131065, 15, 0, 131066, 15, 0, 131067, 15, 0, 131068, 15, 0, 131069, 15, 0, 131070, 15, 0, 131071, 15, 0, 65536, 15, 0, 65537, 15, 0, 65538, 15, 0, 65539, 15, 0, 65540, 15, 0, 65541, 15, 0, 65542, 15, 0, 65543, 15, 0, 65544, 15, 0, 65545, 15, 0, 65546, 15, 0, 65547, 15, 0, 65548, 15, 0, 65549, 15, 0, 65550, 15, 0, 65551, 15, 0, 65552, 15, 0, 65553, 15, 0, 65554, 15, 0, 65555, 15, 0, 65556, 15, 0, 65557, 15, 0, 65558, 15, 0, 65559, 15, 0, 65560, 15, 0, 65561, 15, 0, 65562, 15, 0, 65563, 15, 0, 65564, 15, 0, 65565, 15, 0, 65566, 15, 0, 65567, 15, 0, 65568, 15, 0, 65569, 15, 0, 65570, 15, 0, 65571, 15, 0, 65572, 15, 0, 65573, 15, 0, 65574, 15, 0, 65575, 15, 0, 65576, 15, 0, 65577, 15, 0, 65578, 15, 0, 65579, 15, 0, 65580, 15, 0, 65581, 15, 0, 65582, 15, 0, 65583, 15, 0, 65584, 15, 0, 65585, 15, 0, 65586, 15, 0, 65587, 15, 0, 65588, 15, 0, 65589, 15, 0, 65590, 15, 0, 65591, 15, 0, 65592, 15, 0, 65593, 15, 0, 65594, 15, 0, 65595, 15, 0, 65596, 15, 0, 65597, 15, 0, 65598, 15, 0, 65599, 15, 0, 65600, 15, 0, 65601, 15, 0, 65602, 15, 0, 65603, 15, 0, 65604, 15, 0, 65605, 15, 0, 65606, 15, 0, 65607, 15, 0, 65608, 15, 0, 65609, 15, 0, 65610, 15, 0, 65611, 15, 0, 65612, 15, 0, 65613, 15, 0, 65614, 15, 0, 65615, 15, 0, 65616, 15, 0, 65617, 15, 0, 65618, 15, 0, 65619, 15, 0, 65620, 15, 0, 65621, 15, 0, 65622, 15, 0, 65623, 15, 0, 65624, 15, 0, 65625, 15, 0, 65626, 15, 0, 65627, 15, 0, 65628, 15, 0, 196599, 12, 0, 196600, 15, 0, 196601, 15, 0, 196602, 15, 0, 196603, 15, 0, 196604, 15, 0, 196605, 15, 0, 196606, 15, 0, 196607, 15, 0, 131072, 15, 0, 131073, 15, 0, 131074, 15, 0, 131075, 15, 0, 131076, 15, 0, 131077, 15, 0, 131078, 15, 0, 131079, 15, 0, 131080, 15, 0, 131081, 15, 0, 131082, 15, 0, 131083, -1610612723, 0, 131084, -1610612723, 0, 131085, -1610612724, 0, 131086, 15, 0, 131087, 15, 0, 131088, 15, 0, 131089, 15, 0, 131090, 15, 0, 131091, 15, 0, 131092, 15, 0, 131093, 15, 0, 131094, 15, 0, 131095, 15, 0, 131096, 15, 0, 131097, 15, 0, 131098, 15, 0, 131099, 15, 0, 131100, 15, 0, 131101, 15, 0, 131102, 15, 0, 131103, 15, 0, 131104, 15, 0, 131105, 15, 0, 131106, 15, 0, 131107, 15, 0, 131108, 15, 0, 131109, 15, 0, 131110, 15, 0, 131111, -1610612724, 0, 131112, 15, 0, 131113, 15, 0, 131114, 15, 0, 131115, 15, 0, 131116, 15, 0, 131117, 15, 0, 131118, 15, 0, 131119, 15, 0, 131120, 15, 0, 131121, 15, 0, 131122, 15, 0, 131123, 15, 0, 131124, 15, 0, 131125, 15, 0, 131126, 15, 0, 131127, 15, 0, 131128, 15, 0, 131129, 15, 0, 131130, 15, 0, 131131, 15, 0, 131132, 15, 0, 131133, 15, 0, 131134, 15, 0, 131135, 15, 0, 131136, -1610612722, 0, 131137, -1610612724, 0, 131138, 15, 0, 131139, 15, 0, 131140, 15, 0, 131141, 15, 0, 131142, 15, 0, 131143, 15, 0, 131144, 15, 0, 131145, 15, 0, 131146, 15, 0, 131147, 15, 0, 131148, 15, 0, 131149, 15, 0, 131150, 15, 0, 131151, 15, 0, 131152, 15, 0, 131153, 15, 0, 131154, 15, 0, 131155, 15, 0, 131156, 15, 0, 131157, 15, 0, 131158, 15, 0, 131159, 15, 0, 131160, 15, 0, 131161, 15, 0, 131162, 15, 0, 131163, 15, 0, 131164, 15, 0, 262135, 12, 0, 262136, 15, 0, 262137, 15, 0, 262138, 15, 0, 262139, 15, 0, 262140, 15, 0, 262141, 15, 0, 262142, 15, 0, 262143, 15, 0, 196608, 15, 0, 196609, 15, 0, 196610, 15, 0, 196611, 15, 0, 196612, 15, 0, 196613, 15, 0, 196614, 15, 0, 196615, 15, 0, 196616, 15, 0, 196617, 15, 0, 196618, 15, 0, 196619, 15, 0, 196620, -1610612724, 0, 196621, 15, 0, 196622, 15, 0, 196623, 15, 0, 196624, 15, 0, 196625, 15, 0, 196626, 15, 0, 196627, 15, 0, 196628, 15, 0, 196629, 15, 0, 196630, 15, 0, 196631, 15, 0, 196632, 15, 0, 196633, -1610612723, 0, 196634, 15, 0, 196635, 15, 0, 196636, 15, 0, 196637, 15, 0, 196638, 15, 0, 196639, 15, 0, 196640, 15, 0, 196641, 15, 0, 196642, 15, 0, 196643, 15, 0, 196644, 15, 0, 196645, 15, 0, 196646, 15, 0, 196647, 15, 0, 196648, 15, 0, 196649, 15, 0, 196650, 15, 0, 196651, 15, 0, 196652, 15, 0, 196653, 15, 0, 196654, 15, 0, 196655, 15, 0, 196656, 15, 0, 196657, 15, 0, 196658, 15, 0, 196659, 15, 0, 196660, 15, 0, 196661, 15, 0, 196662, 15, 0, 196663, -1610612724, 0, 196664, 15, 0, 196665, 15, 0, 196666, 15, 0, 196667, 15, 0, 196668, 15, 0, 196669, 15, 0, 196670, 15, 0, 196671, 15, 0, 196672, 15, 0, 196673, 15, 0, 196674, 15, 0, 196675, 15, 0, 196676, 15, 0, 196677, 15, 0, 196678, 15, 0, 196679, 15, 0, 196680, 15, 0, 196681, 15, 0, 196682, 15, 0, 196683, 15, 0, 196684, 15, 0, 196685, 15, 0, 196686, 15, 0, 196687, 15, 0, 196688, 15, 0, 196689, -1610612724, 0, 196690, 15, 0, 196691, 15, 0, 196692, 15, 0, 196693, 15, 0, 196694, 15, 0, 196695, 15, 0, 196696, 15, 0, 196697, 15, 0, 196698, 15, 0, 196699, 15, 0, 196700, 15, 0, 327672, 15, 0, 327673, 15, 0, 327674, 15, 0, 327675, 15, 0, 327676, 15, 0, 327677, 15, 0, 327678, 15, 0, 327679, 15, 0, 262144, 15, 0, 262145, 15, 0, 262146, 15, 0, 262147, -1610612724, 0, 262148, -1610612724, 0, 262149, 15, 0, 262150, 15, 0, 262151, 15, 0, 262152, 15, 0, 262153, 15, 0, 262154, 15, 0, 262155, 15, 0, 262156, 15, 0, 262157, 15, 0, 262158, 15, 0, 262159, 15, 0, 262160, 15, 0, 262161, 15, 0, 262162, 15, 0, 262163, 15, 0, 262164, 15, 0, 262165, 15, 0, 262166, 15, 0, 262167, 15, 0, 262168, 15, 0, 262169, 15, 0, 262170, 15, 0, 262171, 15, 0, 262172, 15, 0, 262173, 15, 0, 262174, 15, 0, 262175, 15, 0, 262176, 15, 0, 262177, 15, 0, 262178, 15, 0, 262179, 15, 0, 262180, 15, 0, 262181, 15, 0, 262182, 15, 0, 262183, 15, 0, 262184, 15, 0, 262185, 15, 0, 262186, 15, 0, 262187, 15, 0, 262188, 15, 0, 262189, 15, 0, 262190, 15, 0, 262191, 15, 0, 262192, 15, 0, 262193, 15, 0, 262194, 15, 0, 262195, 15, 0, 262196, 15, 0, 262197, 15, 0, 262198, 15, 0, 262199, -1610612725, 0, 262200, -1610612724, 0, 262201, 15, 0, 262202, 15, 0, 262203, 15, 0, 262204, 15, 0, 262205, 15, 0, 262206, 15, 0, 262207, 15, 0, 262208, 15, 0, 262209, 15, 0, 262210, 15, 0, 262211, 15, 0, 262212, 15, 0, 262213, 15, 0, 262214, 15, 0, 262215, 15, 0, 262216, 15, 0, 262217, 15, 0, 262218, 15, 0, 262219, 15, 0, 262220, 15, 0, 262221, 15, 0, 262222, 15, 0, 262223, 15, 0, 262224, 15, 0, 262225, 15, 0, 262226, -1610612724, 0, 262227, 15, 0, 262228, 15, 0, 262229, 15, 0, 262230, 15, 0, 262231, 15, 0, 262232, 15, 0, 262233, 15, 0, 262234, 15, 0, 262235, 15, 0, 262236, 15, 0, 393208, 15, 0, 393209, 15, 0, 393210, 15, 0, 393211, 15, 0, 393212, 15, 0, 393213, 15, 0, 393214, 15, 0, 393215, 15, 0, 327680, 15, 0, 327681, 15, 0, 327682, 15, 0, 327683, 15, 0, 327684, 15, 0, 327685, 15, 0, 327686, 15, 0, 327687, 15, 0, 327688, 15, 0, 327689, 15, 0, 327690, 15, 0, 327691, 15, 0, 327692, 15, 0, 327693, 15, 0, 327694, 15, 0, 327695, 15, 0, 327696, 15, 0, 327697, 15, 0, 327698, 15, 0, 327699, 15, 0, 327700, 15, 0, 327701, 15, 0, 327702, 15, 0, 327703, 15, 0, 327704, 15, 0, 327705, 15, 0, 327706, 15, 0, 327707, 15, 0, 327708, 15, 0, 327709, 15, 0, 327710, 15, 0, 327711, 15, 0, 327712, 15, 0, 327713, 15, 0, 327714, 15, 0, 327715, 15, 0, 327716, 15, 0, 327717, 15, 0, 327718, 15, 0, 327719, 15, 0, 327720, 15, 0, 327721, 15, 0, 327722, 15, 0, 327723, 15, 0, 327724, 15, 0, 327725, 15, 0, 327726, 15, 0, 327727, 15, 0, 327728, 15, 0, 327729, 15, 0, 327730, 15, 0, 327731, 15, 0, 327732, 15, 0, 327733, 15, 0, 327734, 15, 0, 327735, 15, 0, 327736, 15, 0, 327737, 15, 0, 327738, 15, 0, 327739, 15, 0, 327740, 15, 0, 327741, 15, 0, 327742, 15, 0, 327743, 15, 0, 327744, 15, 0, 327745, 15, 0, 327746, 15, 0, 327747, 15, 0, 327748, 15, 0, 327749, 15, 0, 327750, 15, 0, 327751, 15, 0, 327752, 15, 0, 327753, 15, 0, 327754, 15, 0, 327755, 15, 0, 327756, 15, 0, 327757, 15, 0, 327758, 15, 0, 327759, 15, 0, 327760, 15, 0, 327761, 15, 0, 327762, 15, 0, 327763, 15, 0, 327764, 15, 0, 327765, 15, 0, 327766, 15, 0, 327767, 15, 0, 327768, 15, 0, 327769, 15, 0, 327770, 15, 0, 327771, 15, 0, 327772, 15, 0, 458744, 15, 0, 458745, 15, 0, 458746, 15, 0, 458747, 15, 0, 458748, 15, 0, 458749, 15, 0, 458750, 15, 0, 458751, 15, 0, 393216, 15, 0, 393217, 15, 0, 393218, 15, 0, 393219, 15, 0, 393220, 15, 0, 393221, 15, 0, 393222, 15, 0, 393223, 15, 0, 393224, 15, 0, 393225, 15, 0, 393226, 15, 0, 393227, 15, 0, 393228, 15, 0, 393229, 15, 0, 393230, 15, 0, 393231, 15, 0, 393232, 15, 0, 393233, 15, 0, 393234, 15, 0, 393235, 15, 0, 393236, 15, 0, 393237, 15, 0, 393238, 15, 0, 393239, 15, 0, 393240, 15, 0, 393241, 15, 0, 393242, 15, 0, 393243, 15, 0, 393244, 15, 0, 393245, 15, 0, 393246, 15, 0, 393247, 15, 0, 393248, 15, 0, 393249, 15, 0, 393250, 15, 0, 393251, 15, 0, 393252, 15, 0, 393253, 15, 0, 393254, 15, 0, 393255, 15, 0, 393256, 15, 0, 393257, 15, 0, 393258, 15, 0, 393259, 15, 0, 393260, 15, 0, 393261, 15, 0, 393262, 15, 0, 393263, 15, 0, 393264, 15, 0, 393265, 15, 0, 393266, 15, 0, 393267, 15, 0, 393268, 15, 0, 393269, 15, 0, 393270, 15, 0, 393271, 15, 0, 393272, 15, 0, 393273, 15, 0, 393274, 15, 0, 393275, 15, 0, 393276, 15, 0, 393277, 15, 0, 393278, 15, 0, 393279, 15, 0, 393280, 15, 0, 393281, 15, 0, 393282, 15, 0, 393283, 15, 0, 393284, 15, 0, 393285, 15, 0, 393286, 15, 0, 393287, 15, 0, 393288, 15, 0, 393289, 15, 0, 393290, 15, 0, 393291, 15, 0, 393292, 15, 0, 393293, 15, 0, 393294, 15, 0, 393295, 15, 0, 393296, 15, 0, 393297, 15, 0, 393298, 15, 0, 393299, 15, 0, 393300, 15, 0, 393301, 15, 0, 393302, 15, 0, 393303, 15, 0, 393304, 15, 0, 393305, 15, 0, 393306, 15, 0, 393307, 15, 0, 393308, 15, 0, 524280, 15, 0, 524281, 15, 0, 524282, 15, 0, 524283, 15, 0, 524284, 15, 0, 524285, 15, 0, 524286, 15, 0, 524287, 15, 0, 458752, 15, 0, 458753, 15, 0, 458754, 15, 0, 458755, 15, 0, 458756, 15, 0, 458757, 15, 0, 458758, 15, 0, 458759, 15, 0, 458760, 15, 0, 458761, 15, 0, 458762, 15, 0, 458763, 15, 0, 458764, 15, 0, 458765, 15, 0, 458766, 15, 0, 458767, 15, 0, 458768, 15, 0, 458769, 15, 0, 458770, 15, 0, 458771, 15, 0, 458772, 15, 0, 458773, 15, 0, 458774, 15, 0, 458775, 15, 0, 458776, 15, 0, 458777, 15, 0, 458778, 15, 0, 458779, 15, 0, 458780, 15, 0, 458781, 15, 0, 458782, 15, 0, 458783, 15, 0, 458784, 15, 0, 458785, 15, 0, 458786, 15, 0, 458787, 15, 0, 458788, 15, 0, 458789, 15, 0, 458790, 15, 0, 458791, 15, 0, 458792, 15, 0, 458793, 15, 0, 458794, 15, 0, 458795, 15, 0, 458796, 15, 0, 458797, 15, 0, 458798, 15, 0, 458799, 15, 0, 458800, 15, 0, 458801, 15, 0, 458802, 15, 0, 458803, 15, 0, 458804, 15, 0, 458805, 15, 0, 458806, 15, 0, 458807, 15, 0, 458808, 15, 0, 458809, 15, 0, 458810, 15, 0, 458811, 15, 0, 458812, 15, 0, 458813, 15, 0, 458814, 15, 0, 458815, 15, 0, 458816, 15, 0, 458817, 15, 0, 458818, 15, 0, 458819, 15, 0, 458820, 15, 0, 458821, 15, 0, 458822, 15, 0, 458823, 15, 0, 458824, 15, 0, 458825, 15, 0, 458826, 15, 0, 458827, 15, 0, 458828, 15, 0, 458829, 15, 0, 458830, 15, 0, 458831, 15, 0, 458832, 15, 0, 458833, 15, 0, 458834, 15, 0, 458835, 15, 0, 458836, 15, 0, 458837, 15, 0, 458838, 15, 0, 458839, 15, 0, 458840, 15, 0, 458841, 15, 0, 458842, 15, 0, 458843, 15, 0, 458844, 15, 0 )

[node name="TileMap" type="TileMap" parent="."]
tile_set = ExtResource( 8 )
cell_size = Vector2( 32, 32 )
format = 1
tile_data = PoolIntArray( -196541, 0, 0, -131059, 7, 0, -131010, 33, 0, -131009, 34, 0, -5, 0, 0, -65535, 9, 0, -65530, 0, 0, -65521, 10, 0, -65516, 0, 0, -65505, 0, 0, -65500, 11, 0, -65490, 8, 0, 55, 33, 0, 56, 34, 0, 57, 34, 0, 58, 536870945, 0, 131078, 1, 0, 196624, 2, 0, 262173, 4, 0, 262184, 3, 0, 262220, 6, 0, 262235, 2, 0, 327749, 1, 0 )

[node name="PWater_parent" type="Node2D" parent="."]
editor/display_folded = true
script = ExtResource( 4 )

[node name="PWater" parent="PWater_parent" instance=ExtResource( 9 )]
position = Vector2( 1551, 16 )

[node name="PWater4" parent="PWater_parent" instance=ExtResource( 9 )]
position = Vector2( 1712, 16 )

[node name="PWater7" parent="PWater_parent" instance=ExtResource( 9 )]
position = Vector2( 1807, 16 )

[node name="PWater2" parent="PWater_parent" instance=ExtResource( 9 )]
position = Vector2( 1583, 16 )

[node name="PWater6" parent="PWater_parent" instance=ExtResource( 9 )]
position = Vector2( 1744, 16 )

[node name="PWater9" parent="PWater_parent" instance=ExtResource( 9 )]
position = Vector2( 1839, 16 )

[node name="PWater11" parent="PWater_parent" instance=ExtResource( 9 )]
position = Vector2( 1904, 16 )

[node name="PWater3" parent="PWater_parent" instance=ExtResource( 9 )]
position = Vector2( 1615, 16 )

[node name="PWater5" parent="PWater_parent" instance=ExtResource( 9 )]
position = Vector2( 1776, 16 )

[node name="PWater8" parent="PWater_parent" instance=ExtResource( 9 )]
position = Vector2( 1871, 16 )

[node name="PWater10" parent="PWater_parent" instance=ExtResource( 9 )]
position = Vector2( 1936, 16 )

[node name="Checkpoint_parent" type="Node2D" parent="."]
editor/display_folded = true
script = ExtResource( 10 )

[node name="Checkpoint" parent="Checkpoint_parent" instance=ExtResource( 11 )]
position = Vector2( 928, -16 )

[node name="Checkpoint2" parent="Checkpoint_parent" instance=ExtResource( 11 )]
position = Vector2( 1424, -16 )

[node name="Checkpoint3" parent="Checkpoint_parent" instance=ExtResource( 11 )]
position = Vector2( 2080, -112 )

[node name="Gems_parent" parent="." instance=ExtResource( 12 )]
editor/display_folded = true

[node name="Gem_A" parent="Gems_parent" instance=ExtResource( 13 )]
position = Vector2( 15, -16 )

[node name="Gem_A13" parent="Gems_parent" instance=ExtResource( 13 )]
position = Vector2( 1039, -16 )

[node name="Gem_A19" parent="Gems_parent" instance=ExtResource( 13 )]
position = Vector2( 1231, -16 )

[node name="Gem_A21" parent="Gems_parent" instance=ExtResource( 13 )]
position = Vector2( 1519, -16 )

[node name="Gem_A2" parent="Gems_parent" instance=ExtResource( 13 )]
position = Vector2( 47, -48 )

[node name="Gem_A16" parent="Gems_parent" instance=ExtResource( 13 )]
position = Vector2( 1071, -48 )

[node name="Gem_A18" parent="Gems_parent" instance=ExtResource( 13 )]
position = Vector2( 1263, -48 )

[node name="Gem_A24" parent="Gems_parent" instance=ExtResource( 13 )]
position = Vector2( 1551, -48 )

[node name="Gem_A3" parent="Gems_parent" instance=ExtResource( 13 )]
position = Vector2( 79, -48 )

[node name="Gem_A14" parent="Gems_parent" instance=ExtResource( 13 )]
position = Vector2( 1103, -48 )

[node name="Gem_A20" parent="Gems_parent" instance=ExtResource( 13 )]
position = Vector2( 1295, -48 )

[node name="Gem_A22" parent="Gems_parent" instance=ExtResource( 13 )]
position = Vector2( 1583, -48 )

[node name="Gem_A4" parent="Gems_parent" instance=ExtResource( 13 )]
position = Vector2( 111, -16 )

[node name="Gem_A15" parent="Gems_parent" instance=ExtResource( 13 )]
position = Vector2( 1135, -16 )

[node name="Gem_A17" parent="Gems_parent" instance=ExtResource( 13 )]
position = Vector2( 1327, -16 )

[node name="Gem_A23" parent="Gems_parent" instance=ExtResource( 13 )]
position = Vector2( 1647, -16 )

[node name="Gem_A5" parent="Gems_parent" instance=ExtResource( 13 )]
position = Vector2( 271, -48 )

[node name="Gem_A6" parent="Gems_parent" instance=ExtResource( 13 )]
position = Vector2( 431, -48 )

[node name="Gem_A7" parent="Gems_parent" instance=ExtResource( 13 )]
position = Vector2( 463, -80 )

[node name="Gem_A8" parent="Gems_parent" instance=ExtResource( 13 )]
position = Vector2( 495, -48 )

[node name="Gem_A9" parent="Gems_parent" instance=ExtResource( 13 )]
position = Vector2( 527, -16 )

[node name="Gem_A10" parent="Gems_parent" instance=ExtResource( 13 )]
position = Vector2( 719, -16 )

[node name="Gem_A11" parent="Gems_parent" instance=ExtResource( 13 )]
position = Vector2( 719, -48 )

[node name="Gem_A12" parent="Gems_parent" instance=ExtResource( 13 )]
position = Vector2( 751, -80 )

[node name="Gem_A25" parent="Gems_parent" instance=ExtResource( 13 )]
position = Vector2( 1615, -48 )

[node name="Gem_A26" parent="Gems_parent" instance=ExtResource( 13 )]
position = Vector2( 1775, -16 )

[node name="Gem_A27" parent="Gems_parent" instance=ExtResource( 13 )]
position = Vector2( 1807, -16 )

[node name="Gem_A28" parent="Gems_parent" instance=ExtResource( 13 )]
position = Vector2( 1839, -16 )

[node name="Gem_A29" parent="Gems_parent" instance=ExtResource( 13 )]
position = Vector2( 1871, -16 )

[node name="Gem_A30" parent="Gems_parent" instance=ExtResource( 13 )]
position = Vector2( 2031, -80 )

[node name="Gem_A31" parent="Gems_parent" instance=ExtResource( 13 )]
position = Vector2( 2671, -12 )

[node name="Gem_A36" parent="Gems_parent" instance=ExtResource( 13 )]
position = Vector2( 2543, -48 )

[node name="Gem_A41" parent="Gems_parent" instance=ExtResource( 13 )]
position = Vector2( 2415, -12 )

[node name="Gem_A45" parent="Gems_parent" instance=ExtResource( 13 )]
position = Vector2( 2287, -12 )

[node name="Gem_A32" parent="Gems_parent" instance=ExtResource( 13 )]
position = Vector2( 2703, -48 )

[node name="Gem_A38" parent="Gems_parent" instance=ExtResource( 13 )]
position = Vector2( 2575, -48 )

[node name="Gem_A43" parent="Gems_parent" instance=ExtResource( 13 )]
position = Vector2( 2447, -12 )

[node name="Gem_A47" parent="Gems_parent" instance=ExtResource( 13 )]
position = Vector2( 2319, -12 )

[node name="Gem_A51" parent="Gems_parent" instance=ExtResource( 13 )]
position = Vector2( 2191, -12 )

[node name="Gem_A33" parent="Gems_parent" instance=ExtResource( 13 )]
position = Vector2( 2735, -48 )

[node name="Gem_A37" parent="Gems_parent" instance=ExtResource( 13 )]
position = Vector2( 2607, -12 )

[node name="Gem_A40" parent="Gems_parent" instance=ExtResource( 13 )]
position = Vector2( 2479, -48 )

[node name="Gem_A46" parent="Gems_parent" instance=ExtResource( 13 )]
position = Vector2( 2351, -12 )

[node name="Gem_A49" parent="Gems_parent" instance=ExtResource( 13 )]
position = Vector2( 2223, -12 )

[node name="Gem_A34" parent="Gems_parent" instance=ExtResource( 13 )]
position = Vector2( 2767, -48 )

[node name="Gem_A39" parent="Gems_parent" instance=ExtResource( 13 )]
position = Vector2( 2639, -12 )

[node name="Gem_A42" parent="Gems_parent" instance=ExtResource( 13 )]
position = Vector2( 2511, -48 )

[node name="Gem_A44" parent="Gems_parent" instance=ExtResource( 13 )]
position = Vector2( 2383, -12 )

[node name="Gem_A50" parent="Gems_parent" instance=ExtResource( 13 )]
position = Vector2( 2255, -12 )

[node name="Gem_A35" parent="Gems_parent" instance=ExtResource( 13 )]
position = Vector2( 2800, -48 )

[node name="Gem_A48" parent="Gems_parent" instance=ExtResource( 13 )]
position = Vector2( 2832, -16 )

[node name="HUD" type="CanvasLayer" parent="."]

[node name="Sprint_bar" parent="HUD" instance=ExtResource( 14 )]

[node name="Score_points" type="Label" parent="HUD"]
anchor_left = 1.0
anchor_right = 1.0
margin_left = -48.0
margin_right = -8.0
margin_bottom = 32.0
text = "0"
valign = 1
script = ExtResource( 15 )

[node name="Score_text" type="Label" parent="HUD"]
anchor_left = 1.0
anchor_right = 1.0
margin_left = -96.0
margin_right = -48.0
margin_bottom = 32.0
text = "Score :"
valign = 1

[node name="Door" type="Area2D" parent="."]
position = Vector2( 100, 0 )
collision_layer = 16
collision_mask = 16
script = ExtResource( 16 )
next_level = "res://scenes/1_1.tscn"

[node name="CollisionShape2D" type="CollisionShape2D" parent="Door"]
position = Vector2( 2860, -64 )
shape = SubResource( 1 )

[node name="Music" type="AudioStreamPlayer" parent="."]
stream = ExtResource( 17 )
volume_db = 6.0
autoplay = true
[connection signal="death" from="Spikes_parent" to="Player" method="_on_Danger_parent_death"]
[connection signal="death" from="PWater_parent" to="Player" method="_on_Danger_parent_death"]
[connection signal="cp_valid" from="Checkpoint_parent" to="Player" method="_on_Checkpoint_parent_cp_valid"]
[connection signal="actualisation_display" from="Gems_parent" to="HUD/Score_points" method="_on_Gems_parent_actualisation_display"]
[connection signal="body_entered" from="Door" to="Door" method="_on_Door_body_entered"]
