[gd_scene load_steps=5 format=2]

[sub_resource type="RectangleShape2D" id=1]
extents = Vector2( 113.5, 10 )

[sub_resource type="RectangleShape2D" id=2]
extents = Vector2( 113.5, 10 )

[sub_resource type="RectangleShape2D" id=3]
extents = Vector2( 10, 112 )

[sub_resource type="RectangleShape2D" id=4]
extents = Vector2( 10, 113.5 )

[node name="Area_border" type="Node2D"]
editor/display_folded = true

[node name="Up" type="Area2D" parent="."]
collision_layer = 512
collision_mask = 0

[node name="CollisionShape2D" type="CollisionShape2D" parent="Up"]
modulate = Color( 0, 0, 0, 1 )
position = Vector2( 0, -106 )
shape = SubResource( 1 )

[node name="Down" type="Area2D" parent="."]
collision_layer = 512
collision_mask = 0

[node name="CollisionShape2D" type="CollisionShape2D" parent="Down"]
modulate = Color( 0, 0, 0, 1 )
position = Vector2( 0, 106 )
shape = SubResource( 2 )

[node name="Left" type="Area2D" parent="."]
collision_layer = 512
collision_mask = 0

[node name="CollisionShape2D" type="CollisionShape2D" parent="Left"]
modulate = Color( 0, 0, 0, 1 )
position = Vector2( -106, 0 )
shape = SubResource( 3 )

[node name="Right" type="Area2D" parent="."]
collision_layer = 512
collision_mask = 0

[node name="CollisionShape2D" type="CollisionShape2D" parent="Right"]
modulate = Color( 0, 0, 0, 1 )
position = Vector2( 106, 1.5 )
shape = SubResource( 4 )
