[gd_scene load_steps=5 format=2]

[ext_resource path="res://scripts/1_2/Light_spawner.gd" type="Script" id=1]
[ext_resource path="res://imgs/imgs_level1_2/sheet_1.png" type="Texture" id=2]


[sub_resource type="RectangleShape2D" id=1]
extents = Vector2( 16, 16 )

[sub_resource type="RectangleShape2D" id=2]
extents = Vector2( 17, 17 )

[node name="Light_spawner" type="StaticBody2D"]
collision_layer = 512
collision_mask = 512
script = ExtResource( 1 )
orientation = -1

[node name="Sprite" type="Sprite" parent="."]
texture = ExtResource( 2 )
vframes = 5
hframes = 4
frame = 13

[node name="CollisionShape2D" type="CollisionShape2D" parent="."]
shape = SubResource( 1 )

[node name="stop_point" type="Area2D" parent="."]
collision_layer = 512
collision_mask = 512

[node name="CollisionShape2D" type="CollisionShape2D" parent="stop_point"]
shape = SubResource( 2 )
