[gd_resource type="TileSet" load_steps=7 format=2]

[ext_resource path="res://imgs/imgs_level1_3/sheet_temple.png" type="Texture" id=1]

[sub_resource type="ConvexPolygonShape2D" id=1]
points = PoolVector2Array( 0, 0, 32, 0, 32, 32, 0, 32 )

[sub_resource type="ConvexPolygonShape2D" id=2]
points = PoolVector2Array( 0, 0, 32, 0, 32, 32, 0, 32 )

[sub_resource type="ConvexPolygonShape2D" id=3]
points = PoolVector2Array( 0, 0, 32, 0, 32, 32, 0, 32 )

[sub_resource type="ConvexPolygonShape2D" id=4]
points = PoolVector2Array( 0, 0, 32, 0, 32, 32, 0, 32 )

[sub_resource type="ConvexPolygonShape2D" id=5]
points = PoolVector2Array( 0, 0, 32, 0, 32, 32, 0, 32 )

[resource]
0/name = "sheet_temple.png 0"
0/texture = ExtResource( 1 )
0/tex_offset = Vector2( 0, 0 )
0/modulate = Color( 1, 1, 1, 1 )
0/region = Rect2( 0, 0, 32, 32 )
0/tile_mode = 0
0/occluder_offset = Vector2( 0, 0 )
0/navigation_offset = Vector2( 0, 0 )
0/shapes = [  ]
0/z_index = 0
1/name = "sheet_temple.png 1"
1/texture = ExtResource( 1 )
1/tex_offset = Vector2( 0, 0 )
1/modulate = Color( 1, 1, 1, 1 )
1/region = Rect2( 32, 0, 32, 32 )
1/tile_mode = 0
1/occluder_offset = Vector2( 0, 0 )
1/navigation_offset = Vector2( 0, 0 )
1/shapes = [  ]
1/z_index = 0
2/name = "sheet_temple.png 2"
2/texture = ExtResource( 1 )
2/tex_offset = Vector2( 0, 0 )
2/modulate = Color( 1, 1, 1, 1 )
2/region = Rect2( 64, 0, 32, 32 )
2/tile_mode = 0
2/occluder_offset = Vector2( 0, 0 )
2/navigation_offset = Vector2( 0, 0 )
2/shapes = [  ]
2/z_index = 0
3/name = "sheet_temple.png 3"
3/texture = ExtResource( 1 )
3/tex_offset = Vector2( 0, 0 )
3/modulate = Color( 1, 1, 1, 1 )
3/region = Rect2( 96, 0, 32, 32 )
3/tile_mode = 0
3/occluder_offset = Vector2( 0, 0 )
3/navigation_offset = Vector2( 0, 0 )
3/shapes = [  ]
3/z_index = 0
4/name = "sheet_temple.png 4"
4/texture = ExtResource( 1 )
4/tex_offset = Vector2( 0, 0 )
4/modulate = Color( 1, 1, 1, 1 )
4/region = Rect2( 128, 0, 32, 32 )
4/tile_mode = 0
4/occluder_offset = Vector2( 0, 0 )
4/navigation_offset = Vector2( 0, 0 )
4/shapes = [  ]
4/z_index = 0
5/name = "sheet_temple.png 5"
5/texture = ExtResource( 1 )
5/tex_offset = Vector2( 0, 0 )
5/modulate = Color( 1, 1, 1, 1 )
5/region = Rect2( 160, 0, 32, 32 )
5/tile_mode = 0
5/occluder_offset = Vector2( 0, 0 )
5/navigation_offset = Vector2( 0, 0 )
5/shapes = [  ]
5/z_index = 0
6/name = "sheet_temple.png 6"
6/texture = ExtResource( 1 )
6/tex_offset = Vector2( 0, 0 )
6/modulate = Color( 1, 1, 1, 1 )
6/region = Rect2( 192, 0, 32, 32 )
6/tile_mode = 0
6/occluder_offset = Vector2( 0, 0 )
6/navigation_offset = Vector2( 0, 0 )
6/shapes = [  ]
6/z_index = 0
7/name = "sheet_temple.png 7"
7/texture = ExtResource( 1 )
7/tex_offset = Vector2( 0, 0 )
7/modulate = Color( 1, 1, 1, 1 )
7/region = Rect2( 224, 0, 32, 32 )
7/tile_mode = 0
7/occluder_offset = Vector2( 0, 0 )
7/navigation_offset = Vector2( 0, 0 )
7/shapes = [  ]
7/z_index = 0
8/name = "sheet_temple.png 8"
8/texture = ExtResource( 1 )
8/tex_offset = Vector2( 0, 0 )
8/modulate = Color( 1, 1, 1, 1 )
8/region = Rect2( 256, 0, 32, 32 )
8/tile_mode = 0
8/occluder_offset = Vector2( 0, 0 )
8/navigation_offset = Vector2( 0, 0 )
8/shapes = [  ]
8/z_index = 0
9/name = "sheet_temple.png 9"
9/texture = ExtResource( 1 )
9/tex_offset = Vector2( 0, 0 )
9/modulate = Color( 1, 1, 1, 1 )
9/region = Rect2( 288, 0, 32, 32 )
9/tile_mode = 0
9/occluder_offset = Vector2( 0, 0 )
9/navigation_offset = Vector2( 0, 0 )
9/shapes = [  ]
9/z_index = 0
10/name = "sheet_temple.png 10"
10/texture = ExtResource( 1 )
10/tex_offset = Vector2( 0, 0 )
10/modulate = Color( 1, 1, 1, 1 )
10/region = Rect2( 0, 32, 32, 32 )
10/tile_mode = 0
10/occluder_offset = Vector2( 0, 0 )
10/navigation_offset = Vector2( 0, 0 )
10/shapes = [  ]
10/z_index = 0
11/name = "sheet_temple.png 11"
11/texture = ExtResource( 1 )
11/tex_offset = Vector2( 0, 0 )
11/modulate = Color( 1, 1, 1, 1 )
11/region = Rect2( 32, 32, 32, 32 )
11/tile_mode = 0
11/occluder_offset = Vector2( 0, 0 )
11/navigation_offset = Vector2( 0, 0 )
11/shapes = [  ]
11/z_index = 0
12/name = "sheet_temple.png 12"
12/texture = ExtResource( 1 )
12/tex_offset = Vector2( 0, 0 )
12/modulate = Color( 1, 1, 1, 1 )
12/region = Rect2( 64, 32, 32, 32 )
12/tile_mode = 0
12/occluder_offset = Vector2( 0, 0 )
12/navigation_offset = Vector2( 0, 0 )
12/shapes = [  ]
12/z_index = 0
13/name = "sheet_temple.png 13"
13/texture = ExtResource( 1 )
13/tex_offset = Vector2( 0, 0 )
13/modulate = Color( 1, 1, 1, 1 )
13/region = Rect2( 96, 32, 32, 32 )
13/tile_mode = 0
13/occluder_offset = Vector2( 0, 0 )
13/navigation_offset = Vector2( 0, 0 )
13/shapes = [  ]
13/z_index = 0
14/name = "sheet_temple.png 14"
14/texture = ExtResource( 1 )
14/tex_offset = Vector2( 0, 0 )
14/modulate = Color( 1, 1, 1, 1 )
14/region = Rect2( 128, 32, 32, 32 )
14/tile_mode = 0
14/occluder_offset = Vector2( 0, 0 )
14/navigation_offset = Vector2( 0, 0 )
14/shapes = [  ]
14/z_index = 0
15/name = "sheet_temple.png 15"
15/texture = ExtResource( 1 )
15/tex_offset = Vector2( 0, 0 )
15/modulate = Color( 1, 1, 1, 1 )
15/region = Rect2( 160, 32, 32, 32 )
15/tile_mode = 0
15/occluder_offset = Vector2( 0, 0 )
15/navigation_offset = Vector2( 0, 0 )
15/shapes = [  ]
15/z_index = 0
16/name = "sheet_temple.png 16"
16/texture = ExtResource( 1 )
16/tex_offset = Vector2( 0, 0 )
16/modulate = Color( 1, 1, 1, 1 )
16/region = Rect2( 192, 32, 32, 32 )
16/tile_mode = 0
16/occluder_offset = Vector2( 0, 0 )
16/navigation_offset = Vector2( 0, 0 )
16/shapes = [  ]
16/z_index = 0
17/name = "sheet_temple.png 17"
17/texture = ExtResource( 1 )
17/tex_offset = Vector2( 0, 0 )
17/modulate = Color( 1, 1, 1, 1 )
17/region = Rect2( 224, 32, 32, 32 )
17/tile_mode = 0
17/occluder_offset = Vector2( 0, 0 )
17/navigation_offset = Vector2( 0, 0 )
17/shapes = [  ]
17/z_index = 0
18/name = "sheet_temple.png 18"
18/texture = ExtResource( 1 )
18/tex_offset = Vector2( 0, 0 )
18/modulate = Color( 1, 1, 1, 1 )
18/region = Rect2( 256, 32, 32, 32 )
18/tile_mode = 0
18/occluder_offset = Vector2( 0, 0 )
18/navigation_offset = Vector2( 0, 0 )
18/shapes = [  ]
18/z_index = 0
19/name = "sheet_temple.png 19"
19/texture = ExtResource( 1 )
19/tex_offset = Vector2( 0, 0 )
19/modulate = Color( 1, 1, 1, 1 )
19/region = Rect2( 288, 32, 32, 32 )
19/tile_mode = 0
19/occluder_offset = Vector2( 0, 0 )
19/navigation_offset = Vector2( 0, 0 )
19/shapes = [  ]
19/z_index = 0
20/name = "sheet_temple.png 20"
20/texture = ExtResource( 1 )
20/tex_offset = Vector2( 0, 0 )
20/modulate = Color( 1, 1, 1, 1 )
20/region = Rect2( 0, 64, 32, 32 )
20/tile_mode = 0
20/occluder_offset = Vector2( 0, 0 )
20/navigation_offset = Vector2( 0, 0 )
20/shapes = [  ]
20/z_index = 0
21/name = "sheet_temple.png 21"
21/texture = ExtResource( 1 )
21/tex_offset = Vector2( 0, 0 )
21/modulate = Color( 1, 1, 1, 1 )
21/region = Rect2( 32, 64, 32, 32 )
21/tile_mode = 0
21/occluder_offset = Vector2( 0, 0 )
21/navigation_offset = Vector2( 0, 0 )
21/shapes = [  ]
21/z_index = 0
22/name = "sheet_temple.png 22"
22/texture = ExtResource( 1 )
22/tex_offset = Vector2( 0, 0 )
22/modulate = Color( 1, 1, 1, 1 )
22/region = Rect2( 64, 64, 32, 32 )
22/tile_mode = 0
22/occluder_offset = Vector2( 0, 0 )
22/navigation_offset = Vector2( 0, 0 )
22/shapes = [  ]
22/z_index = 0
23/name = "sheet_temple.png 23"
23/texture = ExtResource( 1 )
23/tex_offset = Vector2( 0, 0 )
23/modulate = Color( 1, 1, 1, 1 )
23/region = Rect2( 96, 64, 32, 32 )
23/tile_mode = 0
23/occluder_offset = Vector2( 0, 0 )
23/navigation_offset = Vector2( 0, 0 )
23/shapes = [  ]
23/z_index = 0
24/name = "sheet_temple.png 24"
24/texture = ExtResource( 1 )
24/tex_offset = Vector2( 0, 0 )
24/modulate = Color( 1, 1, 1, 1 )
24/region = Rect2( 128, 64, 32, 32 )
24/tile_mode = 0
24/occluder_offset = Vector2( 0, 0 )
24/navigation_offset = Vector2( 0, 0 )
24/shapes = [  ]
24/z_index = 0
25/name = "sheet_temple.png 25"
25/texture = ExtResource( 1 )
25/tex_offset = Vector2( 0, 0 )
25/modulate = Color( 1, 1, 1, 1 )
25/region = Rect2( 160, 64, 32, 32 )
25/tile_mode = 0
25/occluder_offset = Vector2( 0, 0 )
25/navigation_offset = Vector2( 0, 0 )
25/shapes = [  ]
25/z_index = 0
26/name = "sheet_temple.png 26"
26/texture = ExtResource( 1 )
26/tex_offset = Vector2( 0, 0 )
26/modulate = Color( 1, 1, 1, 1 )
26/region = Rect2( 192, 64, 32, 32 )
26/tile_mode = 0
26/occluder_offset = Vector2( 0, 0 )
26/navigation_offset = Vector2( 0, 0 )
26/shapes = [  ]
26/z_index = 0
27/name = "sheet_temple.png 27"
27/texture = ExtResource( 1 )
27/tex_offset = Vector2( 0, 0 )
27/modulate = Color( 1, 1, 1, 1 )
27/region = Rect2( 224, 64, 32, 32 )
27/tile_mode = 0
27/occluder_offset = Vector2( 0, 0 )
27/navigation_offset = Vector2( 0, 0 )
27/shapes = [  ]
27/z_index = 0
28/name = "sheet_temple.png 28"
28/texture = ExtResource( 1 )
28/tex_offset = Vector2( 0, 0 )
28/modulate = Color( 1, 1, 1, 1 )
28/region = Rect2( 256, 64, 32, 32 )
28/tile_mode = 0
28/occluder_offset = Vector2( 0, 0 )
28/navigation_offset = Vector2( 0, 0 )
28/shapes = [  ]
28/z_index = 0
29/name = "sheet_temple.png 29"
29/texture = ExtResource( 1 )
29/tex_offset = Vector2( 0, 0 )
29/modulate = Color( 1, 1, 1, 1 )
29/region = Rect2( 288, 64, 32, 32 )
29/tile_mode = 0
29/occluder_offset = Vector2( 0, 0 )
29/navigation_offset = Vector2( 0, 0 )
29/shapes = [  ]
29/z_index = 0
30/name = "sheet_temple.png 30"
30/texture = ExtResource( 1 )
30/tex_offset = Vector2( 0, 0 )
30/modulate = Color( 1, 1, 1, 1 )
30/region = Rect2( 0, 96, 32, 32 )
30/tile_mode = 0
30/occluder_offset = Vector2( 0, 0 )
30/navigation_offset = Vector2( 0, 0 )
30/shapes = [  ]
30/z_index = 0
31/name = "sheet_temple.png 31"
31/texture = ExtResource( 1 )
31/tex_offset = Vector2( 0, 0 )
31/modulate = Color( 1, 1, 1, 1 )
31/region = Rect2( 32, 96, 32, 32 )
31/tile_mode = 0
31/occluder_offset = Vector2( 0, 0 )
31/navigation_offset = Vector2( 0, 0 )
31/shapes = [  ]
31/z_index = 0
32/name = "sheet_temple.png 32"
32/texture = ExtResource( 1 )
32/tex_offset = Vector2( 0, 0 )
32/modulate = Color( 1, 1, 1, 1 )
32/region = Rect2( 64, 96, 32, 32 )
32/tile_mode = 0
32/occluder_offset = Vector2( 0, 0 )
32/navigation_offset = Vector2( 0, 0 )
32/shapes = [  ]
32/z_index = 0
33/name = "sheet_temple.png 33"
33/texture = ExtResource( 1 )
33/tex_offset = Vector2( 0, 0 )
33/modulate = Color( 1, 1, 1, 1 )
33/region = Rect2( 96, 96, 32, 32 )
33/tile_mode = 0
33/occluder_offset = Vector2( 0, 0 )
33/navigation_offset = Vector2( 0, 0 )
33/shapes = [  ]
33/z_index = 0
34/name = "sheet_temple.png 34"
34/texture = ExtResource( 1 )
34/tex_offset = Vector2( 0, 0 )
34/modulate = Color( 1, 1, 1, 1 )
34/region = Rect2( 128, 96, 32, 32 )
34/tile_mode = 0
34/occluder_offset = Vector2( 0, 0 )
34/navigation_offset = Vector2( 0, 0 )
34/shapes = [  ]
34/z_index = 0
35/name = "sheet_temple.png 35"
35/texture = ExtResource( 1 )
35/tex_offset = Vector2( 0, 0 )
35/modulate = Color( 1, 1, 1, 1 )
35/region = Rect2( 160, 96, 32, 32 )
35/tile_mode = 0
35/occluder_offset = Vector2( 0, 0 )
35/navigation_offset = Vector2( 0, 0 )
35/shapes = [  ]
35/z_index = 0
36/name = "sheet_temple.png 36"
36/texture = ExtResource( 1 )
36/tex_offset = Vector2( 0, 0 )
36/modulate = Color( 1, 1, 1, 1 )
36/region = Rect2( 192, 96, 32, 32 )
36/tile_mode = 0
36/occluder_offset = Vector2( 0, 0 )
36/navigation_offset = Vector2( 0, 0 )
36/shapes = [  ]
36/z_index = 0
37/name = "sheet_temple.png 37"
37/texture = ExtResource( 1 )
37/tex_offset = Vector2( 0, 0 )
37/modulate = Color( 1, 1, 1, 1 )
37/region = Rect2( 224, 96, 32, 32 )
37/tile_mode = 0
37/occluder_offset = Vector2( 0, 0 )
37/navigation_offset = Vector2( 0, 0 )
37/shapes = [  ]
37/z_index = 0
38/name = "sheet_temple.png 38"
38/texture = ExtResource( 1 )
38/tex_offset = Vector2( 0, 0 )
38/modulate = Color( 1, 1, 1, 1 )
38/region = Rect2( 256, 96, 32, 32 )
38/tile_mode = 0
38/occluder_offset = Vector2( 0, 0 )
38/navigation_offset = Vector2( 0, 0 )
38/shapes = [  ]
38/z_index = 0
39/name = "sheet_temple.png 39"
39/texture = ExtResource( 1 )
39/tex_offset = Vector2( 0, 0 )
39/modulate = Color( 1, 1, 1, 1 )
39/region = Rect2( 288, 96, 32, 32 )
39/tile_mode = 0
39/occluder_offset = Vector2( 0, 0 )
39/navigation_offset = Vector2( 0, 0 )
39/shapes = [  ]
39/z_index = 0
41/name = "sheet_temple.png 41"
41/texture = ExtResource( 1 )
41/tex_offset = Vector2( 0, 0 )
41/modulate = Color( 1, 1, 1, 1 )
41/region = Rect2( 32, 128, 32, 32 )
41/tile_mode = 0
41/occluder_offset = Vector2( 0, 0 )
41/navigation_offset = Vector2( 0, 0 )
41/shapes = [  ]
41/z_index = 0
42/name = "sheet_temple.png 42"
42/texture = ExtResource( 1 )
42/tex_offset = Vector2( 0, 0 )
42/modulate = Color( 1, 1, 1, 1 )
42/region = Rect2( 64, 128, 32, 32 )
42/tile_mode = 0
42/occluder_offset = Vector2( 0, 0 )
42/navigation_offset = Vector2( 0, 0 )
42/shapes = [  ]
42/z_index = 0
43/name = "sheet_temple.png 43"
43/texture = ExtResource( 1 )
43/tex_offset = Vector2( 0, 0 )
43/modulate = Color( 1, 1, 1, 1 )
43/region = Rect2( 96, 128, 32, 32 )
43/tile_mode = 0
43/occluder_offset = Vector2( 0, 0 )
43/navigation_offset = Vector2( 0, 0 )
43/shapes = [  ]
43/z_index = 0
44/name = "sheet_temple.png 44"
44/texture = ExtResource( 1 )
44/tex_offset = Vector2( 0, 0 )
44/modulate = Color( 1, 1, 1, 1 )
44/region = Rect2( 128, 128, 32, 32 )
44/tile_mode = 0
44/occluder_offset = Vector2( 0, 0 )
44/navigation_offset = Vector2( 0, 0 )
44/shapes = [  ]
44/z_index = 0
45/name = "sheet_temple.png 45"
45/texture = ExtResource( 1 )
45/tex_offset = Vector2( 0, 0 )
45/modulate = Color( 1, 1, 1, 1 )
45/region = Rect2( 160, 128, 32, 32 )
45/tile_mode = 0
45/occluder_offset = Vector2( 0, 0 )
45/navigation_offset = Vector2( 0, 0 )
45/shapes = [  ]
45/z_index = 0
46/name = "sheet_temple.png 46"
46/texture = ExtResource( 1 )
46/tex_offset = Vector2( 0, 0 )
46/modulate = Color( 1, 1, 1, 1 )
46/region = Rect2( 192, 128, 32, 32 )
46/tile_mode = 0
46/occluder_offset = Vector2( 0, 0 )
46/navigation_offset = Vector2( 0, 0 )
46/shapes = [  ]
46/z_index = 0
47/name = "sheet_temple.png 47"
47/texture = ExtResource( 1 )
47/tex_offset = Vector2( 0, 0 )
47/modulate = Color( 1, 1, 1, 1 )
47/region = Rect2( 224, 128, 32, 32 )
47/tile_mode = 0
47/occluder_offset = Vector2( 0, 0 )
47/navigation_offset = Vector2( 0, 0 )
47/shapes = [  ]
47/z_index = 0
48/name = "sheet_temple.png 48"
48/texture = ExtResource( 1 )
48/tex_offset = Vector2( 0, 0 )
48/modulate = Color( 1, 1, 1, 1 )
48/region = Rect2( 256, 128, 32, 32 )
48/tile_mode = 0
48/occluder_offset = Vector2( 0, 0 )
48/navigation_offset = Vector2( 0, 0 )
48/shapes = [  ]
48/z_index = 0
49/name = "sheet_temple.png 49"
49/texture = ExtResource( 1 )
49/tex_offset = Vector2( 0, 0 )
49/modulate = Color( 1, 1, 1, 1 )
49/region = Rect2( 288, 128, 32, 32 )
49/tile_mode = 0
49/occluder_offset = Vector2( 0, 0 )
49/navigation_offset = Vector2( 0, 0 )
49/shapes = [  ]
49/z_index = 0
50/name = "sheet_temple.png 50"
50/texture = ExtResource( 1 )
50/tex_offset = Vector2( 0, 0 )
50/modulate = Color( 1, 1, 1, 1 )
50/region = Rect2( 0, 160, 32, 32 )
50/tile_mode = 0
50/occluder_offset = Vector2( 0, 0 )
50/navigation_offset = Vector2( 0, 0 )
50/shapes = [  ]
50/z_index = 0
51/name = "sheet_temple.png 51"
51/texture = ExtResource( 1 )
51/tex_offset = Vector2( 0, 0 )
51/modulate = Color( 1, 1, 1, 1 )
51/region = Rect2( 32, 160, 32, 32 )
51/tile_mode = 0
51/occluder_offset = Vector2( 0, 0 )
51/navigation_offset = Vector2( 0, 0 )
51/shapes = [  ]
51/z_index = 0
52/name = "sheet_temple.png 52"
52/texture = ExtResource( 1 )
52/tex_offset = Vector2( 0, 0 )
52/modulate = Color( 1, 1, 1, 1 )
52/region = Rect2( 64, 160, 32, 32 )
52/tile_mode = 0
52/occluder_offset = Vector2( 0, 0 )
52/navigation_offset = Vector2( 0, 0 )
52/shapes = [  ]
52/z_index = 0
55/name = "sheet_temple.png 55"
55/texture = ExtResource( 1 )
55/tex_offset = Vector2( 0, 0 )
55/modulate = Color( 1, 1, 1, 1 )
55/region = Rect2( 160, 160, 32, 32 )
55/tile_mode = 0
55/occluder_offset = Vector2( 0, 0 )
55/navigation_offset = Vector2( 0, 0 )
55/shapes = [  ]
55/z_index = 0
56/name = "sheet_temple.png 56"
56/texture = ExtResource( 1 )
56/tex_offset = Vector2( 0, 0 )
56/modulate = Color( 1, 1, 1, 1 )
56/region = Rect2( 192, 160, 32, 32 )
56/tile_mode = 0
56/occluder_offset = Vector2( 0, 0 )
56/navigation_offset = Vector2( 0, 0 )
56/shapes = [  ]
56/z_index = 0
57/name = "sheet_temple.png 57"
57/texture = ExtResource( 1 )
57/tex_offset = Vector2( 0, 0 )
57/modulate = Color( 1, 1, 1, 1 )
57/region = Rect2( 224, 160, 32, 32 )
57/tile_mode = 0
57/occluder_offset = Vector2( 0, 0 )
57/navigation_offset = Vector2( 0, 0 )
57/shapes = [  ]
57/z_index = 0
58/name = "sheet_temple.png 58"
58/texture = ExtResource( 1 )
58/tex_offset = Vector2( 0, 0 )
58/modulate = Color( 1, 1, 1, 1 )
58/region = Rect2( 256, 160, 32, 32 )
58/tile_mode = 0
58/occluder_offset = Vector2( 0, 0 )
58/navigation_offset = Vector2( 0, 0 )
58/shapes = [  ]
58/z_index = 0
59/name = "sheet_temple.png 59"
59/texture = ExtResource( 1 )
59/tex_offset = Vector2( 0, 0 )
59/modulate = Color( 1, 1, 1, 1 )
59/region = Rect2( 288, 160, 32, 32 )
59/tile_mode = 0
59/occluder_offset = Vector2( 0, 0 )
59/navigation_offset = Vector2( 0, 0 )
59/shapes = [  ]
59/z_index = 0
60/name = "sheet_temple.png 60"
60/texture = ExtResource( 1 )
60/tex_offset = Vector2( 0, 0 )
60/modulate = Color( 1, 1, 1, 1 )
60/region = Rect2( 0, 192, 32, 32 )
60/tile_mode = 0
60/occluder_offset = Vector2( 0, 0 )
60/navigation_offset = Vector2( 0, 0 )
60/shapes = [  ]
60/z_index = 0
61/name = "sheet_temple.png 61"
61/texture = ExtResource( 1 )
61/tex_offset = Vector2( 0, 0 )
61/modulate = Color( 1, 1, 1, 1 )
61/region = Rect2( 32, 192, 32, 32 )
61/tile_mode = 0
61/occluder_offset = Vector2( 0, 0 )
61/navigation_offset = Vector2( 0, 0 )
61/shapes = [  ]
61/z_index = 0
62/name = "sheet_temple.png 62"
62/texture = ExtResource( 1 )
62/tex_offset = Vector2( 0, 0 )
62/modulate = Color( 1, 1, 1, 1 )
62/region = Rect2( 64, 192, 32, 32 )
62/tile_mode = 0
62/occluder_offset = Vector2( 0, 0 )
62/navigation_offset = Vector2( 0, 0 )
62/shapes = [  ]
62/z_index = 0
63/name = "sheet_temple.png 63"
63/texture = ExtResource( 1 )
63/tex_offset = Vector2( 0, 0 )
63/modulate = Color( 1, 1, 1, 1 )
63/region = Rect2( 96, 192, 32, 32 )
63/tile_mode = 0
63/occluder_offset = Vector2( 0, 0 )
63/navigation_offset = Vector2( 0, 0 )
63/shapes = [  ]
63/z_index = 0
64/name = "sheet_temple.png 64"
64/texture = ExtResource( 1 )
64/tex_offset = Vector2( 0, 0 )
64/modulate = Color( 1, 1, 1, 1 )
64/region = Rect2( 224, 192, 32, 32 )
64/tile_mode = 0
64/occluder_offset = Vector2( 0, 0 )
64/navigation_offset = Vector2( 0, 0 )
64/shapes = [  ]
64/z_index = 0
65/name = "sheet_temple.png 65"
65/texture = ExtResource( 1 )
65/tex_offset = Vector2( 0, 0 )
65/modulate = Color( 1, 1, 1, 1 )
65/region = Rect2( 256, 192, 32, 32 )
65/tile_mode = 0
65/occluder_offset = Vector2( 0, 0 )
65/navigation_offset = Vector2( 0, 0 )
65/shapes = [  ]
65/z_index = 0
66/name = "sheet_temple.png 66"
66/texture = ExtResource( 1 )
66/tex_offset = Vector2( 0, 0 )
66/modulate = Color( 1, 1, 1, 1 )
66/region = Rect2( 288, 192, 32, 32 )
66/tile_mode = 0
66/occluder_offset = Vector2( 0, 0 )
66/navigation_offset = Vector2( 0, 0 )
66/shapes = [  ]
66/z_index = 0
67/name = "sheet_temple.png 67"
67/texture = ExtResource( 1 )
67/tex_offset = Vector2( 0, 0 )
67/modulate = Color( 1, 1, 1, 1 )
67/region = Rect2( 0, 224, 32, 32 )
67/tile_mode = 0
67/occluder_offset = Vector2( 0, 0 )
67/navigation_offset = Vector2( 0, 0 )
67/shapes = [  ]
67/z_index = 0
68/name = "sheet_temple.png 68"
68/texture = ExtResource( 1 )
68/tex_offset = Vector2( 0, 0 )
68/modulate = Color( 1, 1, 1, 1 )
68/region = Rect2( 32, 224, 32, 32 )
68/tile_mode = 0
68/occluder_offset = Vector2( 0, 0 )
68/navigation_offset = Vector2( 0, 0 )
68/shapes = [  ]
68/z_index = 0
69/name = "sheet_temple.png 69"
69/texture = ExtResource( 1 )
69/tex_offset = Vector2( 0, 0 )
69/modulate = Color( 1, 1, 1, 1 )
69/region = Rect2( 64, 224, 32, 32 )
69/tile_mode = 0
69/occluder_offset = Vector2( 0, 0 )
69/navigation_offset = Vector2( 0, 0 )
69/shapes = [  ]
69/z_index = 0
70/name = "sheet_temple.png 70"
70/texture = ExtResource( 1 )
70/tex_offset = Vector2( 0, 0 )
70/modulate = Color( 1, 1, 1, 1 )
70/region = Rect2( 96, 224, 32, 32 )
70/tile_mode = 0
70/occluder_offset = Vector2( 0, 0 )
70/navigation_offset = Vector2( 0, 0 )
70/shapes = [  ]
70/z_index = 0
71/name = "sheet_temple.png 71"
71/texture = ExtResource( 1 )
71/tex_offset = Vector2( 0, 0 )
71/modulate = Color( 1, 1, 1, 1 )
71/region = Rect2( 128, 224, 32, 32 )
71/tile_mode = 0
71/occluder_offset = Vector2( 0, 0 )
71/navigation_offset = Vector2( 0, 0 )
71/shapes = [  ]
71/z_index = 0
72/name = "sheet_temple.png 72"
72/texture = ExtResource( 1 )
72/tex_offset = Vector2( 0, 0 )
72/modulate = Color( 1, 1, 1, 1 )
72/region = Rect2( 160, 224, 32, 32 )
72/tile_mode = 0
72/occluder_offset = Vector2( 0, 0 )
72/navigation_offset = Vector2( 0, 0 )
72/shapes = [  ]
72/z_index = 0
73/name = "sheet_temple.png 73"
73/texture = ExtResource( 1 )
73/tex_offset = Vector2( 0, 0 )
73/modulate = Color( 1, 1, 1, 1 )
73/region = Rect2( 192, 224, 32, 32 )
73/tile_mode = 0
73/occluder_offset = Vector2( 0, 0 )
73/navigation_offset = Vector2( 0, 0 )
73/shapes = [  ]
73/z_index = 0
74/name = "sheet_temple.png 74"
74/texture = ExtResource( 1 )
74/tex_offset = Vector2( 0, 0 )
74/modulate = Color( 1, 1, 1, 1 )
74/region = Rect2( 224, 224, 32, 32 )
74/tile_mode = 0
74/occluder_offset = Vector2( 0, 0 )
74/navigation_offset = Vector2( 0, 0 )
74/shapes = [  ]
74/z_index = 0
75/name = "sheet_temple.png 75"
75/texture = ExtResource( 1 )
75/tex_offset = Vector2( 0, 0 )
75/modulate = Color( 1, 1, 1, 1 )
75/region = Rect2( 256, 224, 32, 32 )
75/tile_mode = 0
75/occluder_offset = Vector2( 0, 0 )
75/navigation_offset = Vector2( 0, 0 )
75/shapes = [  ]
75/z_index = 0
76/name = "sheet_temple.png 76"
76/texture = ExtResource( 1 )
76/tex_offset = Vector2( 0, 0 )
76/modulate = Color( 1, 1, 1, 1 )
76/region = Rect2( 288, 224, 32, 32 )
76/tile_mode = 0
76/occluder_offset = Vector2( 0, 0 )
76/navigation_offset = Vector2( 0, 0 )
76/shapes = [  ]
76/z_index = 0
77/name = "sheet_temple.png 77"
77/texture = ExtResource( 1 )
77/tex_offset = Vector2( 0, 0 )
77/modulate = Color( 1, 1, 1, 1 )
77/region = Rect2( 0, 256, 32, 32 )
77/tile_mode = 0
77/occluder_offset = Vector2( 0, 0 )
77/navigation_offset = Vector2( 0, 0 )
77/shapes = [  ]
77/z_index = 0
78/name = "sheet_temple.png 78"
78/texture = ExtResource( 1 )
78/tex_offset = Vector2( 0, 0 )
78/modulate = Color( 1, 1, 1, 1 )
78/region = Rect2( 32, 256, 32, 32 )
78/tile_mode = 0
78/occluder_offset = Vector2( 0, 0 )
78/navigation_offset = Vector2( 0, 0 )
78/shapes = [  ]
78/z_index = 0
79/name = "sheet_temple.png 79"
79/texture = ExtResource( 1 )
79/tex_offset = Vector2( 0, 0 )
79/modulate = Color( 1, 1, 1, 1 )
79/region = Rect2( 64, 256, 32, 32 )
79/tile_mode = 0
79/occluder_offset = Vector2( 0, 0 )
79/navigation_offset = Vector2( 0, 0 )
79/shapes = [  ]
79/z_index = 0
80/name = "sheet_temple.png 80"
80/texture = ExtResource( 1 )
80/tex_offset = Vector2( 0, 0 )
80/modulate = Color( 1, 1, 1, 1 )
80/region = Rect2( 96, 256, 32, 32 )
80/tile_mode = 0
80/occluder_offset = Vector2( 0, 0 )
80/navigation_offset = Vector2( 0, 0 )
80/shapes = [  ]
80/z_index = 0
81/name = "sheet_temple.png 81"
81/texture = ExtResource( 1 )
81/tex_offset = Vector2( 0, 0 )
81/modulate = Color( 1, 1, 1, 1 )
81/region = Rect2( 128, 256, 32, 32 )
81/tile_mode = 0
81/occluder_offset = Vector2( 0, 0 )
81/navigation_offset = Vector2( 0, 0 )
81/shapes = [  ]
81/z_index = 0
82/name = "sheet_temple.png 82"
82/texture = ExtResource( 1 )
82/tex_offset = Vector2( 0, 0 )
82/modulate = Color( 1, 1, 1, 1 )
82/region = Rect2( 160, 256, 32, 32 )
82/tile_mode = 0
82/occluder_offset = Vector2( 0, 0 )
82/navigation_offset = Vector2( 0, 0 )
82/shapes = [  ]
82/z_index = 0
83/name = "sheet_temple.png 83"
83/texture = ExtResource( 1 )
83/tex_offset = Vector2( 0, 0 )
83/modulate = Color( 1, 1, 1, 1 )
83/region = Rect2( 192, 256, 32, 32 )
83/tile_mode = 0
83/occluder_offset = Vector2( 0, 0 )
83/navigation_offset = Vector2( 0, 0 )
83/shapes = [  ]
83/z_index = 0
84/name = "sheet_temple.png 84"
84/texture = ExtResource( 1 )
84/tex_offset = Vector2( 0, 0 )
84/modulate = Color( 1, 1, 1, 1 )
84/region = Rect2( 224, 256, 32, 32 )
84/tile_mode = 0
84/occluder_offset = Vector2( 0, 0 )
84/navigation_offset = Vector2( 0, 0 )
84/shapes = [  ]
84/z_index = 0
85/name = "sheet_temple.png 85"
85/texture = ExtResource( 1 )
85/tex_offset = Vector2( 0, 0 )
85/modulate = Color( 1, 1, 1, 1 )
85/region = Rect2( 256, 256, 32, 32 )
85/tile_mode = 0
85/occluder_offset = Vector2( 0, 0 )
85/navigation_offset = Vector2( 0, 0 )
85/shapes = [  ]
85/z_index = 0
86/name = "sheet_temple.png 86"
86/texture = ExtResource( 1 )
86/tex_offset = Vector2( 0, 0 )
86/modulate = Color( 1, 1, 1, 1 )
86/region = Rect2( 288, 256, 32, 32 )
86/tile_mode = 0
86/occluder_offset = Vector2( 0, 0 )
86/navigation_offset = Vector2( 0, 0 )
86/shapes = [  ]
86/z_index = 0
87/name = "sheet_temple.png 87"
87/texture = ExtResource( 1 )
87/tex_offset = Vector2( 0, 0 )
87/modulate = Color( 1, 1, 1, 1 )
87/region = Rect2( 0, 288, 32, 32 )
87/tile_mode = 0
87/occluder_offset = Vector2( 0, 0 )
87/navigation_offset = Vector2( 0, 0 )
87/shapes = [  ]
87/z_index = 0
88/name = "sheet_temple.png 88"
88/texture = ExtResource( 1 )
88/tex_offset = Vector2( 0, 0 )
88/modulate = Color( 1, 1, 1, 1 )
88/region = Rect2( 32, 288, 32, 32 )
88/tile_mode = 0
88/occluder_offset = Vector2( 0, 0 )
88/navigation_offset = Vector2( 0, 0 )
88/shapes = [  ]
88/z_index = 0
89/name = "sheet_temple.png 89"
89/texture = ExtResource( 1 )
89/tex_offset = Vector2( 0, 0 )
89/modulate = Color( 1, 1, 1, 1 )
89/region = Rect2( 64, 288, 32, 32 )
89/tile_mode = 0
89/occluder_offset = Vector2( 0, 0 )
89/navigation_offset = Vector2( 0, 0 )
89/shapes = [  ]
89/z_index = 0
90/name = "sheet_temple.png 90"
90/texture = ExtResource( 1 )
90/tex_offset = Vector2( 0, 0 )
90/modulate = Color( 1, 1, 1, 1 )
90/region = Rect2( 96, 288, 32, 32 )
90/tile_mode = 0
90/occluder_offset = Vector2( 0, 0 )
90/navigation_offset = Vector2( 0, 0 )
90/shapes = [  ]
90/z_index = 0
91/name = "sheet_temple.png 91"
91/texture = ExtResource( 1 )
91/tex_offset = Vector2( 0, 0 )
91/modulate = Color( 1, 1, 1, 1 )
91/region = Rect2( 128, 288, 32, 32 )
91/tile_mode = 0
91/occluder_offset = Vector2( 0, 0 )
91/navigation_offset = Vector2( 0, 0 )
91/shapes = [  ]
91/z_index = 0
92/name = "sheet_temple.png 92"
92/texture = ExtResource( 1 )
92/tex_offset = Vector2( 0, 0 )
92/modulate = Color( 1, 1, 1, 1 )
92/region = Rect2( 160, 288, 32, 32 )
92/tile_mode = 0
92/occluder_offset = Vector2( 0, 0 )
92/navigation_offset = Vector2( 0, 0 )
92/shapes = [ {
"autotile_coord": Vector2( 0, 0 ),
"one_way": false,
"one_way_margin": 1.0,
"shape": SubResource( 1 ),
"shape_transform": Transform2D( 1, 0, 0, 1, 0, 0 )
} ]
92/z_index = 0
93/name = "sheet_temple.png 93"
93/texture = ExtResource( 1 )
93/tex_offset = Vector2( 0, 0 )
93/modulate = Color( 1, 1, 1, 1 )
93/region = Rect2( 192, 288, 32, 32 )
93/tile_mode = 0
93/occluder_offset = Vector2( 0, 0 )
93/navigation_offset = Vector2( 0, 0 )
93/shapes = [ {
"autotile_coord": Vector2( 0, 0 ),
"one_way": false,
"one_way_margin": 1.0,
"shape": SubResource( 2 ),
"shape_transform": Transform2D( 1, 0, 0, 1, 0, 0 )
} ]
93/z_index = 0
94/name = "sheet_temple.png 94"
94/texture = ExtResource( 1 )
94/tex_offset = Vector2( 0, 0 )
94/modulate = Color( 1, 1, 1, 1 )
94/region = Rect2( 224, 288, 32, 32 )
94/tile_mode = 0
94/occluder_offset = Vector2( 0, 0 )
94/navigation_offset = Vector2( 0, 0 )
94/shapes = [ {
"autotile_coord": Vector2( 0, 0 ),
"one_way": false,
"one_way_margin": 1.0,
"shape": SubResource( 3 ),
"shape_transform": Transform2D( 1, 0, 0, 1, 0, 0 )
} ]
94/z_index = 0
95/name = "sheet_temple.png 95"
95/texture = ExtResource( 1 )
95/tex_offset = Vector2( 0, 0 )
95/modulate = Color( 1, 1, 1, 1 )
95/region = Rect2( 256, 288, 32, 32 )
95/tile_mode = 0
95/occluder_offset = Vector2( 0, 0 )
95/navigation_offset = Vector2( 0, 0 )
95/shapes = [ {
"autotile_coord": Vector2( 0, 0 ),
"one_way": false,
"one_way_margin": 1.0,
"shape": SubResource( 4 ),
"shape_transform": Transform2D( 1, 0, 0, 1, 0, 0 )
} ]
95/z_index = 0
96/name = "sheet_temple.png 96"
96/texture = ExtResource( 1 )
96/tex_offset = Vector2( 0, 0 )
96/modulate = Color( 1, 1, 1, 1 )
96/region = Rect2( 288, 288, 32, 32 )
96/tile_mode = 0
96/occluder_offset = Vector2( 0, 0 )
96/navigation_offset = Vector2( 0, 0 )
96/shapes = [ {
"autotile_coord": Vector2( 0, 0 ),
"one_way": false,
"one_way_margin": 1.0,
"shape": SubResource( 5 ),
"shape_transform": Transform2D( 1, 0, 0, 1, 0, 0 )
} ]
96/z_index = 0
