[gd_scene load_steps=2 format=2]

[ext_resource path="res://scripts/platformers_basics/Sprint_bar.gd" type="Script" id=1]

[node name="Sprint_bar" type="Node2D"]
position = Vector2( 10, 10 )
script = ExtResource( 1 )
