[gd_scene load_steps=11 format=2]

[ext_resource path="res://scripts/1_2/Main_node.gd" type="Script" id=1]
[ext_resource path="res://prefabs/1_2/tileMap.tscn" type="PackedScene" id=2]
[ext_resource path="res://prefabs/1_2/wall.tscn" type="PackedScene" id=3]
[ext_resource path="res://prefabs/1_2/camera2D.tscn" type="PackedScene" id=4]
[ext_resource path="res://prefabs/1_2/light_detecor.tscn" type="PackedScene" id=5]
[ext_resource path="res://prefabs/1_2/miror.tscn" type="PackedScene" id=6]
[ext_resource path="res://prefabs/1_2/light_separator.tscn" type="PackedScene" id=7]
[ext_resource path="res://prefabs/1_2/Light_spawner.tscn" type="PackedScene" id=8]
[ext_resource path="res://prefabs/1_2/buttons.tscn" type="PackedScene" id=9]
[ext_resource path="res://prefabs/1_2/area_border.tscn" type="PackedScene" id=10]







[node name="base" type="Node2D"]
script = ExtResource( 1 )
niveau_suivant = "res://scenes/1_2/1_2_9.tscn"

[node name="TileMap" parent="." instance=ExtResource( 2 )]
position = Vector2( 96, 32 )
tile_data = PoolIntArray( -589827, 1, 0, -589826, 1, 0, -589825, 1, 0, -655360, 1, 0, -655359, 1, 0, -655358, 1, 0, -655357, 1, 0, -655356, 1, 0, -655355, 1, 0, -655354, 1, 0, -655353, 1, 0, -655352, 1, 0, -655351, 1, 0, -655350, 1, 0, -655349, 1, 0, -655348, 1, 0, -655347, 1, 0, -524291, 1, 0, -524290, 1, 0, -524289, 1, 0, -589824, 1, 0, -589823, 1, 0, -589822, 0, 0, -589821, 0, 0, -589820, 0, 0, -589819, 0, 0, -589818, 0, 0, -589817, 0, 0, -589816, 0, 0, -589815, 1, 0, -589814, 1, 0, -589813, 1, 0, -589812, 1, 0, -589811, 1, 0, -458755, 1, 0, -458754, 1, 0, -458753, 1, 0, -524288, 1, 0, -524287, 1, 0, -524286, 0, 0, -524285, 0, 0, -524284, 0, 0, -524283, 0, 0, -524282, 0, 0, -524281, 0, 0, -524280, 0, 0, -524279, 1, 0, -524278, 1, 0, -524277, 1, 0, -524276, 1, 0, -524275, 1, 0, -393219, 1, 0, -393218, 1, 0, -393217, 1, 0, -458752, 1, 0, -458751, 1, 0, -458750, 0, 0, -458749, 0, 0, -458748, 0, 0, -458747, 0, 0, -458746, 0, 0, -458745, 0, 0, -458744, 0, 0, -458743, 1, 0, -458742, 1, 0, -458741, 1, 0, -458740, 1, 0, -458739, 1, 0, -327683, 1, 0, -327682, 1, 0, -327681, 1, 0, -393216, 1, 0, -393215, 1, 0, -393214, 0, 0, -393213, 0, 0, -393212, 0, 0, -393211, 0, 0, -393210, 0, 0, -393209, 0, 0, -393208, 0, 0, -393207, 1, 0, -393206, 1, 0, -393205, 1, 0, -393204, 1, 0, -393203, 1, 0, -262147, 1, 0, -262146, 1, 0, -262145, 1, 0, -327680, 1, 0, -327679, 1, 0, -327678, 0, 0, -327677, 0, 0, -327676, 0, 0, -327675, 0, 0, -327674, 0, 0, -327673, 0, 0, -327672, 0, 0, -327671, 1, 0, -327670, 1, 0, -327669, 1, 0, -327668, 1, 0, -327667, 1, 0, -196611, 1, 0, -196610, 1, 0, -196609, 1, 0, -262144, 1, 0, -262143, 1, 0, -262142, 0, 0, -262141, 0, 0, -262140, 0, 0, -262139, 0, 0, -262138, 0, 0, -262137, 0, 0, -262136, 0, 0, -262135, 1, 0, -262134, 1, 0, -262133, 1, 0, -262132, 1, 0, -262131, 1, 0, -131075, 1, 0, -131074, 1, 0, -131073, 1, 0, -196608, 1, 0, -196607, 1, 0, -196606, 0, 0, -196605, 0, 0, -196604, 0, 0, -196603, 0, 0, -196602, 0, 0, -196601, 0, 0, -196600, 0, 0, -196599, 1, 0, -196598, 1, 0, -196597, 1, 0, -196596, 1, 0, -196595, 1, 0, -65539, 1, 0, -65538, 1, 0, -65537, 1, 0, -131072, 1, 0, -131071, 1, 0, -131070, 1, 0, -131069, 1, 0, -131068, 1, 0, -131067, 1, 0, -131066, 1, 0, -131065, 1, 0, -131064, 1, 0, -131063, 1, 0, -131062, 1, 0, -131061, 1, 0, -131060, 1, 0, -131059, 1, 0 )

[node name="Wall_parent" type="Node2D" parent="."]

[node name="Wall" parent="Wall_parent" instance=ExtResource( 3 )]
position = Vector2( 272, -176 )

[node name="Wall2" parent="Wall_parent" instance=ExtResource( 3 )]
position = Vector2( 272, -208 )

[node name="Camera2D" parent="." instance=ExtResource( 4 )]
position = Vector2( 272, -144 )

[node name="Detector_parent" type="Node2D" parent="."]

[node name="light_detecor" parent="Detector_parent" instance=ExtResource( 5 )]
position = Vector2( 208, -272 )
externe = true

[node name="light_detecor11" parent="Detector_parent" instance=ExtResource( 5 )]
position = Vector2( 144, -208 )
externe = true

[node name="light_detecor14" parent="Detector_parent" instance=ExtResource( 5 )]
position = Vector2( 144, -144 )
externe = true

[node name="light_detecor16" parent="Detector_parent" instance=ExtResource( 5 )]
position = Vector2( 400, -144 )
externe = true

[node name="light_detecor12" parent="Detector_parent" instance=ExtResource( 5 )]
position = Vector2( 144, -176 )
externe = true

[node name="light_detecor18" parent="Detector_parent" instance=ExtResource( 5 )]
position = Vector2( 400, -176 )
externe = true

[node name="light_detecor13" parent="Detector_parent" instance=ExtResource( 5 )]
position = Vector2( 144, -112 )
externe = true

[node name="light_detecor20" parent="Detector_parent" instance=ExtResource( 5 )]
position = Vector2( 368, -112 )

[node name="light_detecor15" parent="Detector_parent" instance=ExtResource( 5 )]
position = Vector2( 144, -80 )
externe = true

[node name="light_detecor21" parent="Detector_parent" instance=ExtResource( 5 )]
position = Vector2( 144, -48 )
needed = true
externe = true

[node name="light_detecor24" parent="Detector_parent" instance=ExtResource( 5 )]
position = Vector2( 400, -48 )
externe = true

[node name="light_detecor22" parent="Detector_parent" instance=ExtResource( 5 )]
position = Vector2( 144, -240 )
externe = true

[node name="light_detecor23" parent="Detector_parent" instance=ExtResource( 5 )]
position = Vector2( 400, -240 )
externe = true

[node name="light_detecor17" parent="Detector_parent" instance=ExtResource( 5 )]
position = Vector2( 400, -80 )
externe = true

[node name="light_detecor10" parent="Detector_parent" instance=ExtResource( 5 )]
position = Vector2( 208, -16 )
externe = true

[node name="light_detecor2" parent="Detector_parent" instance=ExtResource( 5 )]
position = Vector2( 240, -272 )
externe = true

[node name="light_detecor6" parent="Detector_parent" instance=ExtResource( 5 )]
position = Vector2( 240, -16 )
externe = true

[node name="light_detecor3" parent="Detector_parent" instance=ExtResource( 5 )]
position = Vector2( 272, -272 )
externe = true

[node name="light_detecor7" parent="Detector_parent" instance=ExtResource( 5 )]
position = Vector2( 272, -16 )
externe = true

[node name="light_detecor4" parent="Detector_parent" instance=ExtResource( 5 )]
position = Vector2( 304, -272 )
externe = true

[node name="light_detecor9" parent="Detector_parent" instance=ExtResource( 5 )]
position = Vector2( 304, -16 )
externe = true

[node name="light_detecor5" parent="Detector_parent" instance=ExtResource( 5 )]
position = Vector2( 336, -272 )
externe = true

[node name="light_detecor8" parent="Detector_parent" instance=ExtResource( 5 )]
position = Vector2( 336, -16 )
externe = true

[node name="light_detecor25" parent="Detector_parent" instance=ExtResource( 5 )]
position = Vector2( 368, -16 )
needed = true
externe = true

[node name="light_detecor27" parent="Detector_parent" instance=ExtResource( 5 )]
position = Vector2( 368, -272 )
externe = true

[node name="light_detecor26" parent="Detector_parent" instance=ExtResource( 5 )]
position = Vector2( 176, -16 )
externe = true

[node name="light_detecor28" parent="Detector_parent" instance=ExtResource( 5 )]
position = Vector2( 176, -272 )
externe = true

[node name="Miror_parent" type="Node2D" parent="."]
editor/display_folded = true

[node name="Miror" parent="Miror_parent" instance=ExtResource( 6 )]
position = Vector2( 208, -240 )

[node name="Miror4" parent="Miror_parent" instance=ExtResource( 6 )]
position = Vector2( 368, -240 )

[node name="Miror9" parent="Miror_parent" instance=ExtResource( 6 )]
position = Vector2( 208, -48 )

[node name="Miror12" parent="Miror_parent" instance=ExtResource( 6 )]
position = Vector2( 369.5, -80 )

[node name="Miror2" parent="Miror_parent" instance=ExtResource( 6 )]
position = Vector2( 176, -240 )

[node name="Miror6" parent="Miror_parent" instance=ExtResource( 6 )]
position = Vector2( 336, -240 )

[node name="Miror7" parent="Miror_parent" instance=ExtResource( 6 )]
position = Vector2( 176, -80 )

[node name="Miror11" parent="Miror_parent" instance=ExtResource( 6 )]
position = Vector2( 369.5, -48 )
activation_needed = true

[node name="Miror3" parent="Miror_parent" instance=ExtResource( 6 )]
position = Vector2( 176, -208 )
activation_needed = true

[node name="Miror5" parent="Miror_parent" instance=ExtResource( 6 )]
position = Vector2( 368, -208 )

[node name="Miror8" parent="Miror_parent" instance=ExtResource( 6 )]
position = Vector2( 176, -48 )
activation_needed = true

[node name="Miror10" parent="Miror_parent" instance=ExtResource( 6 )]
position = Vector2( 337.5, -48 )

[node name="Miror13" parent="Miror_parent" instance=ExtResource( 6 )]
position = Vector2( 272, -240 )

[node name="Miror14" parent="Miror_parent" instance=ExtResource( 6 )]
position = Vector2( 176, -144 )

[node name="Miror17" parent="Miror_parent" instance=ExtResource( 6 )]
position = Vector2( 336, -208 )
activation_needed = true

[node name="Miror15" parent="Miror_parent" instance=ExtResource( 6 )]
position = Vector2( 272, -48 )

[node name="Miror16" parent="Miror_parent" instance=ExtResource( 6 )]
position = Vector2( 368, -144 )

[node name="Light_separator" parent="Miror_parent" instance=ExtResource( 7 )]
position = Vector2( 272, -144 )

[node name="Light_parent" type="Node2D" parent="."]
editor/display_folded = true

[node name="Light_spawner" parent="Light_parent" instance=ExtResource( 8 )]
position = Vector2( 400, -208 )
orientation = -2

[node name="buttons" parent="." instance=ExtResource( 9 )]
position = Vector2( 48, -256 )

[node name="Area_border" parent="." instance=ExtResource( 10 )]
position = Vector2( 272, -144 )
scale = Vector2( 1.35, 1.35 )
