[gd_scene load_steps=10 format=2]

[ext_resource path="res://scripts/1_2/Main_node.gd" type="Script" id=1]
[ext_resource path="res://prefabs/1_2/tileMap.tscn" type="PackedScene" id=2]
[ext_resource path="res://prefabs/1_2/wall.tscn" type="PackedScene" id=3]
[ext_resource path="res://prefabs/1_2/camera2D.tscn" type="PackedScene" id=4]
[ext_resource path="res://prefabs/1_2/light_detecor.tscn" type="PackedScene" id=5]
[ext_resource path="res://prefabs/1_2/miror.tscn" type="PackedScene" id=6]
[ext_resource path="res://prefabs/1_2/Light_spawner.tscn" type="PackedScene" id=7]
[ext_resource path="res://prefabs/1_2/buttons.tscn" type="PackedScene" id=8]
[ext_resource path="res://prefabs/1_2/area_border.tscn" type="PackedScene" id=9]







[node name="base" type="Node2D"]
script = ExtResource( 1 )
niveau_suivant = "res://scenes/1_2/1_2_11.tscn"

[node name="TileMap" parent="." instance=ExtResource( 2 )]
position = Vector2( 96, 32 )
tile_data = PoolIntArray( -720901, 1, 0, -720900, 1, 0, -720899, 1, 0, -720898, 1, 0, -720897, 1, 0, -786432, 1, 0, -786431, 1, 0, -786430, 1, 0, -786429, 1, 0, -786428, 1, 0, -786427, 1, 0, -786426, 1, 0, -786425, 1, 0, -786424, 1, 0, -786423, 1, 0, -786422, 1, 0, -786421, 1, 0, -786420, 1, 0, -786419, 1, 0, -786418, 1, 0, -786417, 1, 0, -655365, 1, 0, -655364, 1, 0, -655363, 1, 0, -655362, 1, 0, -655361, 1, 0, -720896, 1, 0, -720886, 1, 0, -720885, 1, 0, -720884, 1, 0, -720883, 1, 0, -720882, 1, 0, -720881, 1, 0, -589829, 1, 0, -589828, 1, 0, -589827, 1, 0, -589826, 1, 0, -589825, 1, 0, -655360, 1, 0, -655359, 0, 0, -655358, 0, 0, -655357, 0, 0, -655356, 0, 0, -655355, 0, 0, -655354, 0, 0, -655353, 0, 0, -655352, 0, 0, -655351, 0, 0, -655350, 1, 0, -655349, 1, 0, -655348, 1, 0, -655347, 1, 0, -655346, 1, 0, -655345, 1, 0, -524293, 1, 0, -524292, 1, 0, -524291, 1, 0, -524290, 1, 0, -524289, 1, 0, -589824, 1, 0, -589823, 0, 0, -589822, 0, 0, -589821, 0, 0, -589820, 0, 0, -589819, 0, 0, -589818, 0, 0, -589817, 0, 0, -589816, 0, 0, -589815, 0, 0, -589814, 1, 0, -589813, 1, 0, -589812, 1, 0, -589811, 1, 0, -589810, 1, 0, -589809, 1, 0, -458757, 1, 0, -458756, 1, 0, -458755, 1, 0, -458754, 1, 0, -458753, 1, 0, -524288, 1, 0, -524287, 0, 0, -524286, 0, 0, -524285, 0, 0, -524284, 0, 0, -524283, 0, 0, -524282, 0, 0, -524281, 0, 0, -524280, 0, 0, -524279, 0, 0, -524278, 1, 0, -524277, 1, 0, -524276, 1, 0, -524275, 1, 0, -524274, 1, 0, -524273, 1, 0, -393221, 1, 0, -393220, 1, 0, -393219, 1, 0, -393218, 1, 0, -393217, 1, 0, -458752, 1, 0, -458751, 0, 0, -458750, 0, 0, -458749, 0, 0, -458748, 0, 0, -458747, 0, 0, -458746, 0, 0, -458745, 0, 0, -458744, 0, 0, -458743, 0, 0, -458742, 1, 0, -458741, 1, 0, -458740, 1, 0, -458739, 1, 0, -458738, 1, 0, -458737, 1, 0, -327685, 1, 0, -327684, 1, 0, -327683, 1, 0, -327682, 1, 0, -327681, 1, 0, -393216, 1, 0, -393215, 0, 0, -393214, 0, 0, -393213, 0, 0, -393212, 0, 0, -393211, 0, 0, -393210, 0, 0, -393209, 0, 0, -393208, 0, 0, -393207, 0, 0, -393206, 1, 0, -393205, 1, 0, -393204, 1, 0, -393203, 1, 0, -393202, 1, 0, -393201, 1, 0, -262149, 1, 0, -262148, 1, 0, -262147, 1, 0, -262146, 1, 0, -262145, 1, 0, -327680, 1, 0, -327679, 0, 0, -327678, 0, 0, -327677, 0, 0, -327676, 0, 0, -327675, 0, 0, -327674, 0, 0, -327673, 0, 0, -327672, 0, 0, -327671, 0, 0, -327670, 1, 0, -327669, 1, 0, -327668, 1, 0, -327667, 1, 0, -327666, 1, 0, -327665, 1, 0, -196613, 1, 0, -196612, 1, 0, -196611, 1, 0, -196610, 1, 0, -196609, 1, 0, -262144, 1, 0, -262143, 0, 0, -262142, 0, 0, -262141, 0, 0, -262140, 0, 0, -262139, 0, 0, -262138, 0, 0, -262137, 0, 0, -262136, 0, 0, -262135, 0, 0, -262134, 1, 0, -262133, 1, 0, -262132, 1, 0, -262131, 1, 0, -262130, 1, 0, -262129, 1, 0, -131077, 1, 0, -131076, 1, 0, -131075, 1, 0, -131074, 1, 0, -131073, 1, 0, -196608, 1, 0, -196607, 0, 0, -196606, 0, 0, -196605, 0, 0, -196604, 0, 0, -196603, 0, 0, -196602, 0, 0, -196601, 0, 0, -196600, 0, 0, -196599, 0, 0, -196598, 1, 0, -196597, 1, 0, -196596, 1, 0, -196595, 1, 0, -196594, 1, 0, -196593, 1, 0, -65541, 1, 0, -65540, 1, 0, -65539, 1, 0, -65538, 1, 0, -65537, 1, 0, -131072, 1, 0, -131071, 0, 0, -131070, 0, 0, -131069, 0, 0, -131068, 0, 0, -131067, 0, 0, -131066, 0, 0, -131065, 0, 0, -131064, 0, 0, -131063, 0, 0, -131062, 1, 0, -131061, 1, 0, -131060, 1, 0, -131059, 1, 0, -131058, 1, 0, -131057, 1, 0, -5, 1, 0, -4, 1, 0, -3, 1, 0, -2, 1, 0, -1, 1, 0, -65536, 1, 0, -65526, 1, 0, -65525, 1, 0, -65524, 1, 0, -65523, 1, 0, -65522, 1, 0, -65521, 1, 0, 65531, 1, 0, 65532, 1, 0, 65533, 1, 0, 65534, 1, 0, 65535, 1, 0, 0, 1, 0, 1, 1, 0, 2, 1, 0, 3, 1, 0, 4, 1, 0, 5, 1, 0, 6, 1, 0, 7, 1, 0, 8, 1, 0, 9, 1, 0, 10, 1, 0, 11, 1, 0, 12, 1, 0, 13, 1, 0, 14, 1, 0, 15, 1, 0 )

[node name="Wall_parent" type="Node2D" parent="."]

[node name="Wall" parent="Wall_parent" instance=ExtResource( 3 )]
position = Vector2( 400, -144 )

[node name="Wall2" parent="Wall_parent" instance=ExtResource( 3 )]
position = Vector2( 400, -174.5 )

[node name="Wall3" parent="Wall_parent" instance=ExtResource( 3 )]
position = Vector2( 400, -112 )

[node name="Camera2D" parent="." instance=ExtResource( 4 )]
position = Vector2( 272, -144 )
zoom = Vector2( 0.65, 0.65 )

[node name="Detector_parent" type="Node2D" parent="."]

[node name="light_detecor" parent="Detector_parent" instance=ExtResource( 5 )]
position = Vector2( 208, -304 )
externe = true

[node name="light_detecor11" parent="Detector_parent" instance=ExtResource( 5 )]
position = Vector2( 304, -208 )
needed = true

[node name="light_detecor19" parent="Detector_parent" instance=ExtResource( 5 )]
position = Vector2( 432, -208 )
externe = true

[node name="light_detecor14" parent="Detector_parent" instance=ExtResource( 5 )]
position = Vector2( 368, -141.495 )
needed = true

[node name="light_detecor16" parent="Detector_parent" instance=ExtResource( 5 )]
position = Vector2( 432, -144 )
externe = true

[node name="light_detecor12" parent="Detector_parent" instance=ExtResource( 5 )]
position = Vector2( 336, -176 )
needed = true

[node name="light_detecor18" parent="Detector_parent" instance=ExtResource( 5 )]
position = Vector2( 432, -176 )
externe = true

[node name="light_detecor13" parent="Detector_parent" instance=ExtResource( 5 )]
position = Vector2( 336, -112 )
needed = true

[node name="light_detecor20" parent="Detector_parent" instance=ExtResource( 5 )]
position = Vector2( 432, -112 )
externe = true

[node name="light_detecor15" parent="Detector_parent" instance=ExtResource( 5 )]
position = Vector2( 304, -80 )
needed = true

[node name="light_detecor24" parent="Detector_parent" instance=ExtResource( 5 )]
position = Vector2( 432, -48 )
externe = true

[node name="light_detecor23" parent="Detector_parent" instance=ExtResource( 5 )]
position = Vector2( 432, -240 )
needed = true
externe = true

[node name="light_detecor29" parent="Detector_parent" instance=ExtResource( 5 )]
position = Vector2( 432, -272 )
needed = true
externe = true

[node name="light_detecor30" parent="Detector_parent" instance=ExtResource( 5 )]
position = Vector2( 400, -304 )
externe = true

[node name="light_detecor31" parent="Detector_parent" instance=ExtResource( 5 )]
position = Vector2( 144, -304 )
needed = true
externe = true

[node name="light_detecor34" parent="Detector_parent" instance=ExtResource( 5 )]
position = Vector2( 144, 16 )
externe = true

[node name="light_detecor35" parent="Detector_parent" instance=ExtResource( 5 )]
position = Vector2( 400, 16 )
externe = true

[node name="light_detecor36" parent="Detector_parent" instance=ExtResource( 5 )]
position = Vector2( 432, -16 )
externe = true

[node name="light_detecor17" parent="Detector_parent" instance=ExtResource( 5 )]
position = Vector2( 432, -80 )
externe = true

[node name="light_detecor10" parent="Detector_parent" instance=ExtResource( 5 )]
position = Vector2( 208, 16 )
externe = true

[node name="light_detecor2" parent="Detector_parent" instance=ExtResource( 5 )]
position = Vector2( 240, -304 )
externe = true

[node name="light_detecor6" parent="Detector_parent" instance=ExtResource( 5 )]
position = Vector2( 240, 16 )
needed = true
externe = true

[node name="light_detecor3" parent="Detector_parent" instance=ExtResource( 5 )]
position = Vector2( 272, -304 )
externe = true

[node name="light_detecor7" parent="Detector_parent" instance=ExtResource( 5 )]
position = Vector2( 272, 16 )
externe = true

[node name="light_detecor4" parent="Detector_parent" instance=ExtResource( 5 )]
position = Vector2( 304, -304 )
externe = true

[node name="light_detecor9" parent="Detector_parent" instance=ExtResource( 5 )]
position = Vector2( 304, 16 )
externe = true

[node name="light_detecor5" parent="Detector_parent" instance=ExtResource( 5 )]
position = Vector2( 336, -304 )
externe = true

[node name="light_detecor8" parent="Detector_parent" instance=ExtResource( 5 )]
position = Vector2( 336, 16 )
externe = true

[node name="light_detecor25" parent="Detector_parent" instance=ExtResource( 5 )]
position = Vector2( 368, 16 )
externe = true

[node name="light_detecor27" parent="Detector_parent" instance=ExtResource( 5 )]
position = Vector2( 368, -304 )
needed = true
externe = true

[node name="light_detecor26" parent="Detector_parent" instance=ExtResource( 5 )]
position = Vector2( 176, 16 )
externe = true

[node name="light_detecor28" parent="Detector_parent" instance=ExtResource( 5 )]
position = Vector2( 176, -304 )
externe = true

[node name="light_detecor21" parent="Detector_parent" instance=ExtResource( 5 )]
position = Vector2( 272, -112 )

[node name="Miror_parent" type="Node2D" parent="."]
editor/display_folded = true

[node name="Miror" parent="Miror_parent" instance=ExtResource( 6 )]
position = Vector2( 144, -272 )

[node name="Miror5" parent="Miror_parent" instance=ExtResource( 6 )]
position = Vector2( 272, -144 )

[node name="Miror2" parent="Miror_parent" instance=ExtResource( 6 )]
position = Vector2( 176, -240 )

[node name="Miror6" parent="Miror_parent" instance=ExtResource( 6 )]
position = Vector2( 304, -112 )

[node name="Miror3" parent="Miror_parent" instance=ExtResource( 6 )]
position = Vector2( 208, -208 )

[node name="Miror8" parent="Miror_parent" instance=ExtResource( 6 )]
position = Vector2( 336, -80 )

[node name="Miror4" parent="Miror_parent" instance=ExtResource( 6 )]
position = Vector2( 240, -176 )

[node name="Miror7" parent="Miror_parent" instance=ExtResource( 6 )]
position = Vector2( 368, -48 )

[node name="Miror9" parent="Miror_parent" instance=ExtResource( 6 )]
position = Vector2( 400, -16 )

[node name="Miror10" parent="Miror_parent" instance=ExtResource( 6 )]
position = Vector2( 400, -272 )

[node name="Miror16" parent="Miror_parent" instance=ExtResource( 6 )]
position = Vector2( 240, -112 )

[node name="Miror13" parent="Miror_parent" instance=ExtResource( 6 )]
position = Vector2( 336, -208 )

[node name="Miror14" parent="Miror_parent" instance=ExtResource( 6 )]
position = Vector2( 176, -48 )

[node name="Miror11" parent="Miror_parent" instance=ExtResource( 6 )]
position = Vector2( 368, -240 )

[node name="Miror15" parent="Miror_parent" instance=ExtResource( 6 )]
position = Vector2( 208, -80 )

[node name="Miror12" parent="Miror_parent" instance=ExtResource( 6 )]
position = Vector2( 304, -176 )

[node name="Miror17" parent="Miror_parent" instance=ExtResource( 6 )]
position = Vector2( 144, -16 )

[node name="Light_parent" type="Node2D" parent="."]

[node name="Light_spawner" parent="Light_parent" instance=ExtResource( 7 )]
position = Vector2( 112, -272 )
orientation = 2

[node name="Light_spawner2" parent="Light_parent" instance=ExtResource( 7 )]
position = Vector2( 112, -240 )
orientation = 2

[node name="Light_spawner3" parent="Light_parent" instance=ExtResource( 7 )]
position = Vector2( 112, -208 )
orientation = 2

[node name="Light_spawner4" parent="Light_parent" instance=ExtResource( 7 )]
position = Vector2( 112, -176 )
orientation = 2

[node name="Light_spawner6" parent="Light_parent" instance=ExtResource( 7 )]
position = Vector2( 112, -113.5 )
orientation = 2

[node name="Light_spawner7" parent="Light_parent" instance=ExtResource( 7 )]
position = Vector2( 112, -80 )
orientation = 2

[node name="Light_spawner8" parent="Light_parent" instance=ExtResource( 7 )]
position = Vector2( 112, -48 )
orientation = 2

[node name="Light_spawner9" parent="Light_parent" instance=ExtResource( 7 )]
position = Vector2( 112, -16 )
orientation = 2

[node name="Light_spawner5" parent="Light_parent" instance=ExtResource( 7 )]
position = Vector2( 112, -144 )
orientation = 2

[node name="buttons" parent="." instance=ExtResource( 8 )]
position = Vector2( 16, -256 )

[node name="Area_border" parent="." instance=ExtResource( 9 )]
position = Vector2( 272, -144 )
scale = Vector2( 1.67, 1.67 )
