[gd_scene load_steps=4 format=2]

[ext_resource path="res://scripts/gems/Gem.gd" type="Script" id=1]
[ext_resource path="res://imgs/imgs_level1_1/sheet_1.png" type="Texture" id=2]

[sub_resource type="CircleShape2D" id=1]

[node name="Gem_A" type="Area2D"]
collision_layer = 0
collision_mask = 2
script = ExtResource( 1 )
__meta__ = {
"_edit_group_": true
}
points = 1

[node name="Sprite" type="Sprite" parent="."]
texture = ExtResource( 2 )
vframes = 6
hframes = 6
frame = 34

[node name="CollisionShape2D" type="CollisionShape2D" parent="."]
shape = SubResource( 1 )
[connection signal="body_entered" from="." to="." method="_on_Area2D_body_entered"]
